#SeqID	Length	Prediction
NODE_1_length_203217_cov_25.4228_ID_1	203217	Chromosome
NODE_2_length_188568_cov_23.3771_ID_3	188568	Chromosome
NODE_3_length_187249_cov_30.3165_ID_5	187249	Chromosome
NODE_4_length_165109_cov_26.8163_ID_7	165109	Chromosome
NODE_5_length_120223_cov_28.1016_ID_9	120223	Chromosome
NODE_6_length_89831_cov_23.6381_ID_11	89831	Chromosome
NODE_7_length_77305_cov_23.5111_ID_13	77305	Chromosome
NODE_8_length_73088_cov_27.8323_ID_15	73088	Chromosome
NODE_9_length_67569_cov_26.1598_ID_17	67569	Chromosome
NODE_10_length_64788_cov_36.0608_ID_19	64788	Plasmid
NODE_11_length_60908_cov_29.5098_ID_21	60908	Plasmid
NODE_12_length_58071_cov_27.0368_ID_23	58071	Chromosome
NODE_13_length_53973_cov_22.8485_ID_25	53973	Chromosome
NODE_14_length_51618_cov_26.7168_ID_27	51618	Chromosome
NODE_15_length_45225_cov_25.5928_ID_29	45225	Chromosome
NODE_16_length_44469_cov_24.2833_ID_31	44469	Chromosome
NODE_17_length_42984_cov_29.9272_ID_33	42984	Chromosome
NODE_18_length_40550_cov_29.1951_ID_35	40550	Chromosome
NODE_19_length_40383_cov_29.4554_ID_37	40383	Chromosome
NODE_20_length_39474_cov_29.2584_ID_39	39474	Chromosome
NODE_21_length_38950_cov_30.6466_ID_41	38950	Chromosome
NODE_22_length_38942_cov_29.2537_ID_43	38942	Plasmid
NODE_23_length_38257_cov_30.2501_ID_45	38257	Chromosome
NODE_24_length_36333_cov_32.3053_ID_47	36333	Chromosome
NODE_25_length_32678_cov_22.9395_ID_49	32678	Chromosome
NODE_26_length_31784_cov_22.3049_ID_51	31784	Chromosome
NODE_27_length_29007_cov_36.4503_ID_53	29007	Chromosome
NODE_28_length_25120_cov_30.2782_ID_55	25120	Chromosome
NODE_29_length_20394_cov_25.4938_ID_57	20394	Plasmid
NODE_30_length_18334_cov_27.6203_ID_59	18334	Chromosome
NODE_31_length_17420_cov_31.4624_ID_61	17420	Chromosome
NODE_32_length_17099_cov_23.8667_ID_63	17099	Chromosome
NODE_33_length_16580_cov_31.8768_ID_65	16580	Plasmid
NODE_34_length_16429_cov_29.0033_ID_67	16429	Chromosome
NODE_35_length_15714_cov_31.3784_ID_69	15714	Chromosome
NODE_36_length_15419_cov_26.3846_ID_71	15419	Plasmid
NODE_37_length_15280_cov_28.7271_ID_73	15280	Plasmid
NODE_38_length_14857_cov_31.3567_ID_75	14857	Chromosome
NODE_39_length_14800_cov_25.3226_ID_77	14800	Chromosome
NODE_40_length_14432_cov_30.4504_ID_79	14432	Chromosome
NODE_41_length_14403_cov_24.1409_ID_81	14403	Plasmid
NODE_42_length_13447_cov_24.0118_ID_83	13447	Chromosome
NODE_43_length_12863_cov_30.4348_ID_85	12863	Chromosome
NODE_44_length_12757_cov_23.9077_ID_87	12757	Chromosome
NODE_45_length_12703_cov_23.3648_ID_89	12703	Chromosome
NODE_46_length_11977_cov_26.0118_ID_91	11977	Plasmid
NODE_47_length_11961_cov_22.4396_ID_93	11961	Chromosome
NODE_48_length_11408_cov_30.5398_ID_95	11408	Chromosome
NODE_49_length_11129_cov_23.0463_ID_97	11129	Chromosome
NODE_50_length_11034_cov_28.8003_ID_99	11034	Chromosome
NODE_51_length_10298_cov_55.534_ID_101	10298	Chromosome
NODE_52_length_10055_cov_34.2445_ID_103	10055	Chromosome
NODE_53_length_9800_cov_25.6612_ID_105	9800	Plasmid
NODE_54_length_9644_cov_21.818_ID_107	9644	Chromosome
NODE_55_length_9403_cov_28.4023_ID_109	9403	Chromosome
NODE_56_length_9120_cov_29.1854_ID_111	9120	Chromosome
NODE_57_length_8290_cov_26.5105_ID_113	8290	Chromosome
NODE_58_length_7552_cov_28.0855_ID_115	7552	Chromosome
NODE_59_length_6913_cov_23.4115_ID_117	6913	Chromosome
NODE_60_length_6762_cov_26.4002_ID_119	6762	Chromosome
NODE_61_length_6624_cov_29.3043_ID_121	6624	Chromosome
NODE_62_length_6290_cov_27.3014_ID_123	6290	Plasmid
NODE_63_length_5412_cov_40.8108_ID_125	5412	Plasmid
NODE_64_length_5179_cov_34.2057_ID_127	5179	Plasmid
NODE_65_length_4763_cov_26.0744_ID_129	4763	Chromosome
NODE_66_length_4480_cov_26.7355_ID_131	4480	Chromosome
NODE_67_length_3665_cov_25.234_ID_133	3665	Chromosome
NODE_68_length_3403_cov_27.7004_ID_135	3403	Plasmid
NODE_69_length_3078_cov_32.1845_ID_137	3078	Plasmid
NODE_70_length_2858_cov_28.2303_ID_139	2858	Plasmid
NODE_71_length_1993_cov_49.856_ID_141	1993	Chromosome
NODE_72_length_1716_cov_55.1999_ID_143	1716	Plasmid
NODE_73_length_1625_cov_60.2955_ID_145	1625	Chromosome
NODE_74_length_1485_cov_60.2908_ID_147	1485	Plasmid
NODE_75_length_1410_cov_23.7206_ID_149	1410	Chromosome
NODE_76_length_1407_cov_230.074_ID_151	1407	Plasmid
NODE_77_length_1386_cov_208.93_ID_153	1386	Chromosome
NODE_78_length_1338_cov_115.279_ID_155	1338	Chromosome
NODE_79_length_1278_cov_231.923_ID_157	1278	Plasmid
NODE_80_length_1248_cov_112.859_ID_159	1248	Plasmid
NODE_81_length_1147_cov_26.3703_ID_161	1147	Chromosome
NODE_82_length_1131_cov_39.375_ID_163	1131	Plasmid
NODE_83_length_1106_cov_58.3191_ID_165	1106	Chromosome
NODE_84_length_1065_cov_209.76_ID_167	1065	Plasmid
NODE_85_length_1029_cov_218.856_ID_169	1029	Plasmid
NODE_86_length_940_cov_326.416_ID_171	940	Plasmid
NODE_87_length_912_cov_231.173_ID_173	912	Plasmid
NODE_88_length_701_cov_35.369_ID_175	701	Plasmid
NODE_89_length_672_cov_58.665_ID_177	672	Chromosome
NODE_90_length_633_cov_232.645_ID_179	633	Plasmid
NODE_91_length_627_cov_186.288_ID_181	627	Plasmid
NODE_92_length_573_cov_151.231_ID_183	573	Chromosome
NODE_93_length_564_cov_245.757_ID_185	564	Chromosome
NODE_94_length_533_cov_38.9083_ID_187	533	Chromosome
NODE_96_length_504_cov_194.886_ID_191	504	Chromosome
NODE_95_length_504_cov_115.359_ID_189	504	Chromosome
NODE_1_length_260762_cov_66.8321_ID_1	260762	Chromosome
NODE_2_length_234529_cov_60.4026_ID_3	234529	Chromosome
NODE_3_length_215695_cov_55.7558_ID_5	215695	Chromosome
NODE_4_length_191544_cov_62.1257_ID_7	191544	Chromosome
NODE_5_length_141301_cov_65.0622_ID_9	141301	Chromosome
NODE_6_length_139637_cov_70.9723_ID_11	139637	Chromosome
NODE_7_length_139277_cov_54.037_ID_13	139277	Plasmid
NODE_8_length_130075_cov_45.7872_ID_15	130075	Chromosome
NODE_9_length_124616_cov_48.3919_ID_17	124616	Chromosome
NODE_10_length_121385_cov_51.9055_ID_19	121385	Chromosome
NODE_11_length_116846_cov_49.034_ID_21	116846	Chromosome
NODE_12_length_98578_cov_57.7847_ID_23	98578	Chromosome
NODE_13_length_93535_cov_50.1031_ID_25	93535	Chromosome
NODE_14_length_87031_cov_67.7248_ID_27	87031	Plasmid
NODE_15_length_79497_cov_60.1521_ID_29	79497	Chromosome
NODE_16_length_65471_cov_53.7471_ID_31	65471	Chromosome
NODE_17_length_59964_cov_65.3768_ID_33	59964	Chromosome
NODE_18_length_48906_cov_60.8308_ID_35	48906	Chromosome
NODE_19_length_31136_cov_60.9934_ID_37	31136	Chromosome
NODE_20_length_27604_cov_54.5809_ID_39	27604	Chromosome
NODE_21_length_20835_cov_58.0904_ID_41	20835	Plasmid
NODE_22_length_16052_cov_63.0197_ID_43	16052	Chromosome
NODE_23_length_14300_cov_65.7734_ID_45	14300	Plasmid
NODE_24_length_14246_cov_50.7652_ID_47	14246	Chromosome
NODE_25_length_12098_cov_60.6574_ID_49	12098	Chromosome
NODE_26_length_10763_cov_56.2252_ID_51	10763	Chromosome
NODE_27_length_8707_cov_67.4394_ID_53	8707	Plasmid
NODE_28_length_8510_cov_62.5413_ID_55	8510	Chromosome
NODE_29_length_7686_cov_66.5634_ID_57	7686	Chromosome
NODE_30_length_7230_cov_65.7043_ID_59	7230	Chromosome
NODE_31_length_6087_cov_56.9017_ID_61	6087	Chromosome
NODE_32_length_5939_cov_55.1441_ID_63	5939	Plasmid
NODE_33_length_4733_cov_56.2707_ID_65	4733	Plasmid
NODE_34_length_2942_cov_539.506_ID_67	2942	Plasmid
NODE_35_length_1749_cov_105.735_ID_69	1749	Plasmid
NODE_36_length_1438_cov_572.745_ID_71	1438	Plasmid
NODE_37_length_1397_cov_499.719_ID_73	1397	Plasmid
NODE_38_length_1366_cov_300.58_ID_75	1366	Chromosome
NODE_39_length_1190_cov_38.4529_ID_77	1190	Plasmid
NODE_40_length_1186_cov_502.813_ID_79	1186	Plasmid
NODE_41_length_1144_cov_121.035_ID_81	1144	Chromosome
NODE_42_length_1065_cov_155.452_ID_83	1065	Plasmid
NODE_43_length_949_cov_417.264_ID_85	949	Chromosome
NODE_44_length_852_cov_470.026_ID_87	852	Chromosome
NODE_45_length_819_cov_55.2245_ID_89	819	Chromosome
NODE_46_length_769_cov_488.684_ID_91	769	Chromosome
NODE_47_length_742_cov_125.24_ID_93	742	Plasmid
NODE_48_length_626_cov_135.031_ID_95	626	Chromosome
NODE_49_length_573_cov_126.58_ID_97	573	Plasmid
NODE_50_length_553_cov_208.887_ID_99	553	Plasmid
NODE_52_length_542_cov_118.283_ID_103	542	Chromosome
NODE_51_length_542_cov_592.099_ID_101	542	Plasmid
NODE_53_length_537_cov_98.6269_ID_105	537	Chromosome
NODE_54_length_529_cov_674.901_ID_107	529	Plasmid
NODE_1_length_120518_cov_48.5406_ID_1	120518	Plasmid
NODE_2_length_91298_cov_43.3703_ID_3	91298	Chromosome
NODE_3_length_82279_cov_54.9887_ID_5	82279	Chromosome
NODE_4_length_76915_cov_43.4058_ID_7	76915	Chromosome
NODE_5_length_74472_cov_50.4172_ID_9	74472	Chromosome
NODE_6_length_72933_cov_51.6967_ID_11	72933	Chromosome
NODE_7_length_71310_cov_43.046_ID_13	71310	Chromosome
NODE_8_length_56844_cov_48.8898_ID_15	56844	Chromosome
NODE_9_length_56195_cov_55.7326_ID_17	56195	Chromosome
NODE_10_length_55600_cov_46.1044_ID_19	55600	Chromosome
NODE_11_length_54840_cov_51.0836_ID_21	54840	Chromosome
NODE_12_length_54800_cov_47.9839_ID_23	54800	Chromosome
NODE_13_length_50949_cov_54.5494_ID_25	50949	Chromosome
NODE_14_length_50137_cov_48.1586_ID_27	50137	Chromosome
NODE_15_length_49963_cov_48.6308_ID_29	49963	Chromosome
NODE_16_length_46162_cov_45.1184_ID_31	46162	Chromosome
NODE_17_length_42411_cov_52.3694_ID_33	42411	Chromosome
NODE_18_length_42027_cov_52.4974_ID_35	42027	Plasmid
NODE_19_length_41228_cov_54.4505_ID_37	41228	Chromosome
NODE_20_length_41120_cov_46.6172_ID_39	41120	Plasmid
NODE_21_length_40053_cov_47.212_ID_41	40053	Chromosome
NODE_22_length_39813_cov_42.0817_ID_43	39813	Chromosome
NODE_23_length_39623_cov_54.1434_ID_45	39623	Chromosome
NODE_24_length_36980_cov_48.2783_ID_47	36980	Chromosome
NODE_25_length_35172_cov_53.9976_ID_49	35172	Chromosome
NODE_26_length_34723_cov_48.4837_ID_51	34723	Plasmid
NODE_27_length_34174_cov_59.9058_ID_53	34174	Chromosome
NODE_28_length_29373_cov_55.4082_ID_55	29373	Chromosome
NODE_29_length_29252_cov_57.4501_ID_57	29252	Plasmid
NODE_30_length_28833_cov_51.2179_ID_59	28833	Chromosome
NODE_31_length_28275_cov_50.9401_ID_61	28275	Chromosome
NODE_32_length_27832_cov_54.5743_ID_63	27832	Chromosome
NODE_33_length_26677_cov_51.8731_ID_65	26677	Chromosome
NODE_34_length_26562_cov_46.548_ID_67	26562	Chromosome
NODE_35_length_26024_cov_53.982_ID_69	26024	Chromosome
NODE_36_length_25610_cov_43.6333_ID_71	25610	Chromosome
NODE_37_length_23988_cov_55.8538_ID_73	23988	Chromosome
NODE_38_length_23054_cov_50.413_ID_75	23054	Chromosome
NODE_39_length_23013_cov_45.9071_ID_77	23013	Chromosome
NODE_40_length_21620_cov_48.7863_ID_79	21620	Chromosome
NODE_41_length_21195_cov_55.2096_ID_81	21195	Chromosome
NODE_42_length_17819_cov_57.8893_ID_83	17819	Plasmid
NODE_43_length_17746_cov_60.1817_ID_85	17746	Chromosome
NODE_44_length_15642_cov_54.1131_ID_87	15642	Chromosome
NODE_45_length_15211_cov_53.4071_ID_89	15211	Plasmid
NODE_46_length_15058_cov_61.0985_ID_91	15058	Chromosome
NODE_47_length_14759_cov_43.9049_ID_93	14759	Chromosome
NODE_48_length_14647_cov_53.1806_ID_95	14647	Chromosome
NODE_49_length_14077_cov_44.4504_ID_97	14077	Plasmid
NODE_50_length_13495_cov_61.6852_ID_99	13495	Chromosome
NODE_51_length_12796_cov_60.6332_ID_101	12796	Chromosome
NODE_52_length_12574_cov_43.7414_ID_103	12574	Chromosome
NODE_53_length_12558_cov_44.0907_ID_105	12558	Chromosome
NODE_54_length_12114_cov_56.5684_ID_107	12114	Chromosome
NODE_55_length_12029_cov_76.059_ID_109	12029	Plasmid
NODE_56_length_11982_cov_50.476_ID_111	11982	Chromosome
NODE_57_length_11891_cov_73.8465_ID_113	11891	Plasmid
NODE_58_length_11518_cov_46.4611_ID_115	11518	Chromosome
NODE_59_length_11467_cov_49.6261_ID_117	11467	Chromosome
NODE_60_length_11260_cov_83.2038_ID_119	11260	Plasmid
NODE_61_length_11226_cov_44.6546_ID_121	11226	Chromosome
NODE_62_length_11179_cov_51.572_ID_123	11179	Chromosome
NODE_63_length_11153_cov_51.9287_ID_125	11153	Chromosome
NODE_64_length_10966_cov_44.8948_ID_127	10966	Chromosome
NODE_65_length_10559_cov_44.4627_ID_129	10559	Chromosome
NODE_66_length_10278_cov_59.0173_ID_131	10278	Plasmid
NODE_67_length_9874_cov_52.1091_ID_133	9874	Chromosome
NODE_68_length_9856_cov_48.2723_ID_135	9856	Chromosome
NODE_69_length_9699_cov_67.0798_ID_137	9699	Chromosome
NODE_70_length_9190_cov_46.695_ID_139	9190	Chromosome
NODE_71_length_8973_cov_47.95_ID_141	8973	Chromosome
NODE_72_length_8906_cov_69.9307_ID_143	8906	Plasmid
NODE_73_length_8201_cov_44.8778_ID_145	8201	Chromosome
NODE_74_length_8149_cov_71.2112_ID_147	8149	Chromosome
NODE_75_length_8140_cov_50.9779_ID_149	8140	Chromosome
NODE_76_length_7520_cov_44.5081_ID_151	7520	Chromosome
NODE_77_length_7395_cov_72.2973_ID_153	7395	Chromosome
NODE_78_length_7310_cov_64.8025_ID_155	7310	Chromosome
NODE_79_length_7204_cov_49.9467_ID_157	7204	Chromosome
NODE_80_length_6554_cov_52.8549_ID_159	6554	Plasmid
NODE_81_length_6502_cov_46.9247_ID_161	6502	Chromosome
NODE_82_length_6429_cov_75.1486_ID_163	6429	Chromosome
NODE_83_length_6152_cov_48.4094_ID_165	6152	Chromosome
NODE_84_length_6117_cov_52.3376_ID_167	6117	Chromosome
NODE_85_length_5864_cov_59.521_ID_169	5864	Plasmid
NODE_86_length_5254_cov_41.4872_ID_171	5254	Chromosome
NODE_87_length_5053_cov_84.5181_ID_173	5053	Plasmid
NODE_88_length_5047_cov_70.9916_ID_175	5047	Chromosome
NODE_89_length_5045_cov_78.8296_ID_177	5045	Chromosome
NODE_90_length_5022_cov_88.2911_ID_179	5022	Chromosome
NODE_91_length_4945_cov_85.3524_ID_181	4945	Plasmid
NODE_92_length_4942_cov_50.5482_ID_183	4942	Chromosome
NODE_93_length_4860_cov_40.0669_ID_185	4860	Plasmid
NODE_94_length_4698_cov_53.6829_ID_187	4698	Chromosome
NODE_95_length_4628_cov_45.7621_ID_189	4628	Plasmid
NODE_96_length_3894_cov_116.951_ID_191	3894	Plasmid
NODE_97_length_3859_cov_58.3417_ID_193	3859	Chromosome
NODE_98_length_3820_cov_39.0272_ID_195	3820	Plasmid
NODE_99_length_3629_cov_44.276_ID_197	3629	Plasmid
NODE_100_length_3482_cov_62.2389_ID_199	3482	Plasmid
NODE_101_length_3471_cov_48.2786_ID_201	3471	Chromosome
NODE_102_length_3407_cov_59.1026_ID_203	3407	Chromosome
NODE_103_length_3381_cov_72.0508_ID_205	3381	Plasmid
NODE_104_length_3367_cov_97.7263_ID_207	3367	Chromosome
NODE_105_length_3314_cov_61.1247_ID_209	3314	Chromosome
NODE_106_length_3088_cov_50.4212_ID_211	3088	Plasmid
NODE_107_length_2800_cov_267.205_ID_213	2800	Plasmid
NODE_108_length_2783_cov_95.4985_ID_215	2783	Chromosome
NODE_109_length_2748_cov_121.54_ID_217	2748	Plasmid
NODE_110_length_2693_cov_49.5596_ID_219	2693	Chromosome
NODE_111_length_2344_cov_67.6033_ID_221	2344	Plasmid
NODE_112_length_2333_cov_87.5013_ID_223	2333	Plasmid
NODE_113_length_2262_cov_49.2421_ID_225	2262	Plasmid
NODE_115_length_1953_cov_130.343_ID_229	1953	Plasmid
NODE_114_length_1866_cov_43.9042_ID_227	1866	Chromosome
NODE_116_length_1786_cov_160.31_ID_231	1786	Plasmid
NODE_117_length_1776_cov_67.8101_ID_233	1776	Plasmid
NODE_118_length_1723_cov_292.954_ID_235	1723	Plasmid
NODE_119_length_1678_cov_590.901_ID_237	1678	Plasmid
NODE_120_length_1611_cov_90.6341_ID_239	1611	Plasmid
NODE_121_length_1594_cov_134.213_ID_241	1594	Plasmid
NODE_122_length_1582_cov_58.3663_ID_243	1582	Plasmid
NODE_123_length_1570_cov_166.353_ID_245	1570	Plasmid
NODE_124_length_1515_cov_405.145_ID_247	1515	Plasmid
NODE_125_length_1497_cov_291.942_ID_249	1497	Plasmid
NODE_126_length_1411_cov_57.5262_ID_251	1411	Plasmid
NODE_127_length_1408_cov_151.448_ID_253	1408	Plasmid
NODE_128_length_1368_cov_167.073_ID_255	1368	Plasmid
NODE_129_length_1366_cov_269.789_ID_257	1366	Chromosome
NODE_130_length_1350_cov_90.5075_ID_259	1350	Chromosome
NODE_131_length_1294_cov_162.786_ID_261	1294	Plasmid
NODE_132_length_1249_cov_91.7394_ID_263	1249	Plasmid
NODE_133_length_1208_cov_321.108_ID_265	1208	Plasmid
NODE_134_length_1197_cov_403.142_ID_267	1197	Plasmid
NODE_135_length_1119_cov_483.569_ID_269	1119	Plasmid
NODE_136_length_1058_cov_184.188_ID_271	1058	Plasmid
NODE_137_length_1020_cov_795.14_ID_273	1020	Plasmid
NODE_138_length_1013_cov_56.1834_ID_275	1013	Plasmid
NODE_139_length_940_cov_118.323_ID_277	940	Plasmid
NODE_140_length_936_cov_102.922_ID_279	936	Plasmid
NODE_141_length_912_cov_423.717_ID_281	912	Chromosome
NODE_142_length_887_cov_45.5025_ID_283	887	Chromosome
NODE_143_length_848_cov_347.939_ID_285	848	Plasmid
NODE_144_length_758_cov_113.684_ID_287	758	Plasmid
NODE_145_length_746_cov_394.121_ID_289	746	Plasmid
NODE_146_length_717_cov_516.925_ID_291	717	Chromosome
NODE_147_length_699_cov_194.986_ID_293	699	Plasmid
NODE_148_length_693_cov_250.218_ID_295	693	Chromosome
NODE_149_length_635_cov_458.191_ID_297	635	Chromosome
NODE_150_length_627_cov_494.585_ID_299	627	Chromosome
NODE_151_length_602_cov_447.493_ID_301	602	Chromosome
NODE_152_length_568_cov_406.471_ID_303	568	Plasmid
NODE_153_length_548_cov_239.349_ID_305	548	Chromosome
NODE_154_length_529_cov_236.055_ID_307	529	Chromosome
NODE_155_length_521_cov_318.908_ID_309	521	Plasmid
NODE_156_length_519_cov_137.923_ID_311	519	Chromosome
NODE_157_length_503_cov_256.065_ID_313	503	Chromosome
NODE_1_length_133543_cov_61.9597_ID_1	133543	Chromosome
NODE_2_length_121697_cov_54.7139_ID_3	121697	Chromosome
NODE_3_length_102056_cov_64.9278_ID_5	102056	Chromosome
NODE_4_length_99963_cov_66.17_ID_7	99963	Chromosome
NODE_5_length_99405_cov_69.2064_ID_9	99405	Chromosome
NODE_6_length_95838_cov_64.4993_ID_11	95838	Chromosome
NODE_7_length_91520_cov_70.7527_ID_13	91520	Chromosome
NODE_8_length_91252_cov_66.1195_ID_15	91252	Chromosome
NODE_9_length_86998_cov_70.1384_ID_17	86998	Plasmid
NODE_10_length_82675_cov_56.2826_ID_19	82675	Chromosome
NODE_11_length_80778_cov_71.2784_ID_21	80778	Chromosome
NODE_12_length_76018_cov_62.3153_ID_23	76018	Chromosome
NODE_13_length_70950_cov_52.5404_ID_25	70950	Chromosome
NODE_14_length_67992_cov_50.9925_ID_27	67992	Chromosome
NODE_15_length_66499_cov_66.3026_ID_29	66499	Chromosome
NODE_16_length_60757_cov_56.9618_ID_31	60757	Chromosome
NODE_17_length_58867_cov_57.5201_ID_33	58867	Chromosome
NODE_18_length_56397_cov_66.5354_ID_35	56397	Chromosome
NODE_19_length_55812_cov_68.3755_ID_37	55812	Chromosome
NODE_20_length_55779_cov_66.0793_ID_39	55779	Chromosome
NODE_21_length_54126_cov_62.4133_ID_41	54126	Chromosome
NODE_22_length_53632_cov_53.0063_ID_43	53632	Chromosome
NODE_23_length_48028_cov_62.4577_ID_45	48028	Chromosome
NODE_24_length_43739_cov_63.6174_ID_47	43739	Plasmid
NODE_25_length_42767_cov_58.5858_ID_49	42767	Plasmid
NODE_26_length_33538_cov_52.8663_ID_51	33538	Chromosome
NODE_27_length_32688_cov_62.7375_ID_53	32688	Chromosome
NODE_28_length_32290_cov_55.0469_ID_55	32290	Chromosome
NODE_29_length_32176_cov_53.3721_ID_57	32176	Plasmid
NODE_30_length_30084_cov_55.6523_ID_59	30084	Chromosome
NODE_31_length_29696_cov_60.5817_ID_61	29696	Plasmid
NODE_32_length_26985_cov_61.5155_ID_63	26985	Chromosome
NODE_33_length_24862_cov_107.007_ID_65	24862	Chromosome
NODE_34_length_23253_cov_48.9608_ID_67	23253	Plasmid
NODE_35_length_22145_cov_58.3715_ID_69	22145	Chromosome
NODE_36_length_21805_cov_103.655_ID_71	21805	Plasmid
NODE_37_length_21241_cov_73.0399_ID_73	21241	Plasmid
NODE_38_length_20901_cov_56.2305_ID_75	20901	Chromosome
NODE_39_length_20662_cov_54.8346_ID_77	20662	Chromosome
NODE_40_length_20421_cov_64.7244_ID_79	20421	Chromosome
NODE_41_length_19118_cov_60.6537_ID_81	19118	Chromosome
NODE_42_length_18545_cov_68.6596_ID_83	18545	Chromosome
NODE_43_length_18450_cov_67.1634_ID_85	18450	Plasmid
NODE_44_length_17982_cov_57.2348_ID_87	17982	Plasmid
NODE_45_length_15738_cov_85.9201_ID_89	15738	Plasmid
NODE_46_length_15647_cov_62.4312_ID_91	15647	Chromosome
NODE_47_length_15399_cov_59.9126_ID_93	15399	Chromosome
NODE_48_length_14324_cov_71.9706_ID_95	14324	Chromosome
NODE_49_length_13893_cov_50.5251_ID_97	13893	Plasmid
NODE_50_length_13864_cov_118.803_ID_99	13864	Plasmid
NODE_51_length_13146_cov_72.8592_ID_101	13146	Chromosome
NODE_52_length_12664_cov_44.8445_ID_103	12664	Chromosome
NODE_53_length_11597_cov_52.3532_ID_105	11597	Plasmid
NODE_54_length_11153_cov_68.3935_ID_107	11153	Chromosome
NODE_55_length_10317_cov_71.502_ID_109	10317	Plasmid
NODE_56_length_10096_cov_51.2517_ID_111	10096	Chromosome
NODE_57_length_9977_cov_47.1744_ID_113	9977	Chromosome
NODE_58_length_9925_cov_63.7012_ID_115	9925	Chromosome
NODE_59_length_9863_cov_58.767_ID_117	9863	Chromosome
NODE_60_length_9617_cov_41.1363_ID_119	9617	Plasmid
NODE_61_length_9444_cov_49.1677_ID_121	9444	Plasmid
NODE_62_length_9370_cov_278.593_ID_123	9370	Plasmid
NODE_63_length_9365_cov_56.1666_ID_125	9365	Plasmid
NODE_64_length_9201_cov_50.0147_ID_127	9201	Chromosome
NODE_65_length_8058_cov_84.3132_ID_129	8058	Chromosome
NODE_66_length_7911_cov_82.38_ID_131	7911	Chromosome
NODE_67_length_7810_cov_81.0381_ID_133	7810	Plasmid
NODE_68_length_6625_cov_51.2214_ID_135	6625	Chromosome
NODE_69_length_6399_cov_14.8329_ID_137	6399	Plasmid
NODE_70_length_6243_cov_77.5438_ID_139	6243	Chromosome
NODE_71_length_5959_cov_219.12_ID_141	5959	Plasmid
NODE_72_length_5579_cov_61.2927_ID_143	5579	Plasmid
NODE_73_length_5362_cov_74.5727_ID_145	5362	Plasmid
NODE_74_length_5172_cov_60.3584_ID_147	5172	Plasmid
NODE_75_length_5164_cov_60.4734_ID_149	5164	Plasmid
NODE_76_length_5056_cov_82.3891_ID_151	5056	Chromosome
NODE_77_length_5002_cov_88.4189_ID_153	5002	Plasmid
NODE_79_length_4842_cov_56.4602_ID_157	4842	Chromosome
NODE_78_length_4842_cov_80.3359_ID_155	4842	Plasmid
NODE_80_length_4727_cov_30.9155_ID_159	4727	Plasmid
NODE_81_length_4670_cov_55.9469_ID_161	4670	Chromosome
NODE_82_length_4664_cov_59.7259_ID_163	4664	Chromosome
NODE_83_length_4574_cov_98.5023_ID_165	4574	Chromosome
NODE_84_length_4356_cov_66.4219_ID_167	4356	Chromosome
NODE_85_length_4133_cov_296.586_ID_169	4133	Plasmid
NODE_86_length_4088_cov_78.3247_ID_171	4088	Plasmid
NODE_87_length_3945_cov_95.8036_ID_173	3945	Plasmid
NODE_88_length_3852_cov_47.8009_ID_175	3852	Plasmid
NODE_89_length_3588_cov_1533.19_ID_177	3588	Plasmid
NODE_90_length_3584_cov_75.2628_ID_179	3584	Chromosome
NODE_91_length_3396_cov_558.994_ID_181	3396	Plasmid
NODE_92_length_3229_cov_56.4581_ID_183	3229	Plasmid
NODE_93_length_3153_cov_83.8944_ID_185	3153	Plasmid
NODE_94_length_3091_cov_1047.19_ID_187	3091	Plasmid
NODE_95_length_3089_cov_369.971_ID_189	3089	Chromosome
NODE_96_length_3001_cov_366.915_ID_191	3001	Chromosome
NODE_97_length_2922_cov_79.7165_ID_193	2922	Plasmid
NODE_98_length_2812_cov_89.2908_ID_195	2812	Chromosome
NODE_99_length_2740_cov_766.156_ID_197	2740	Plasmid
NODE_100_length_2726_cov_98.51_ID_199	2726	Chromosome
NODE_101_length_2655_cov_77.0105_ID_201	2655	Chromosome
NODE_102_length_2558_cov_60.6605_ID_203	2558	Plasmid
NODE_103_length_2390_cov_49.0691_ID_205	2390	Plasmid
NODE_104_length_2386_cov_465.746_ID_207	2386	Plasmid
NODE_105_length_2128_cov_310.119_ID_209	2128	Chromosome
NODE_106_length_2126_cov_942.573_ID_211	2126	Plasmid
NODE_107_length_2056_cov_2685.95_ID_213	2056	Plasmid
NODE_109_length_2030_cov_1482.69_ID_217	2030	Plasmid
NODE_110_length_2010_cov_2560.64_ID_219	2010	Plasmid
NODE_111_length_2003_cov_2071.48_ID_221	2003	Plasmid
NODE_112_length_1984_cov_200.228_ID_223	1984	Chromosome
NODE_108_length_1903_cov_55.1891_ID_215	1903	Chromosome
NODE_113_length_1896_cov_281.817_ID_225	1896	Plasmid
NODE_114_length_1834_cov_64.9852_ID_227	1834	Plasmid
NODE_115_length_1818_cov_772.658_ID_229	1818	Plasmid
NODE_116_length_1788_cov_396.263_ID_231	1788	Chromosome
NODE_117_length_1770_cov_535.773_ID_233	1770	Chromosome
NODE_118_length_1686_cov_51.5866_ID_235	1686	Chromosome
NODE_119_length_1677_cov_170.18_ID_237	1677	Plasmid
NODE_120_length_1664_cov_57.3241_ID_239	1664	Plasmid
NODE_121_length_1487_cov_747.528_ID_241	1487	Chromosome
NODE_122_length_1473_cov_37.1917_ID_243	1473	Chromosome
NODE_123_length_1449_cov_69.8937_ID_245	1449	Plasmid
NODE_124_length_1428_cov_69.5514_ID_247	1428	Plasmid
NODE_125_length_1417_cov_68.9486_ID_249	1417	Chromosome
NODE_126_length_1412_cov_160.422_ID_251	1412	Chromosome
NODE_127_length_1370_cov_126.208_ID_253	1370	Plasmid
NODE_128_length_1366_cov_541.642_ID_255	1366	Chromosome
NODE_129_length_1336_cov_267.326_ID_257	1336	Plasmid
NODE_130_length_1324_cov_917.418_ID_259	1324	Plasmid
NODE_131_length_1221_cov_234.16_ID_261	1221	Chromosome
NODE_132_length_1195_cov_92.1214_ID_263	1195	Plasmid
NODE_133_length_1143_cov_61.7856_ID_265	1143	Chromosome
NODE_134_length_1126_cov_55.1294_ID_267	1126	Plasmid
NODE_136_length_1065_cov_110.069_ID_271	1065	Plasmid
NODE_135_length_1065_cov_159.052_ID_269	1065	Plasmid
NODE_138_length_1064_cov_663.688_ID_275	1064	Plasmid
NODE_137_length_1064_cov_191.481_ID_273	1064	Plasmid
NODE_139_length_1051_cov_15.374_ID_277	1051	Plasmid
NODE_140_length_1037_cov_15.8472_ID_279	1037	Chromosome
NODE_141_length_1028_cov_79.1081_ID_281	1028	Chromosome
NODE_142_length_999_cov_57.7825_ID_283	999	Chromosome
NODE_143_length_990_cov_61.0634_ID_285	990	Chromosome
NODE_144_length_951_cov_56.5982_ID_287	951	Plasmid
NODE_145_length_934_cov_167.285_ID_289	934	Plasmid
NODE_146_length_930_cov_126.529_ID_291	930	Plasmid
NODE_147_length_925_cov_110.616_ID_293	925	Chromosome
NODE_148_length_892_cov_287.416_ID_295	892	Chromosome
NODE_149_length_854_cov_58.2015_ID_297	854	Plasmid
NODE_150_length_835_cov_167.805_ID_299	835	Plasmid
NODE_151_length_826_cov_72.9308_ID_301	826	Chromosome
NODE_152_length_815_cov_165.538_ID_303	815	Plasmid
NODE_153_length_809_cov_388.335_ID_305	809	Plasmid
NODE_155_length_769_cov_78.4294_ID_309	769	Plasmid
NODE_154_length_769_cov_80.8761_ID_307	769	Plasmid
NODE_156_length_767_cov_3460.48_ID_311	767	Plasmid
NODE_157_length_741_cov_300.512_ID_313	741	Plasmid
NODE_159_length_724_cov_87.1402_ID_317	724	Plasmid
NODE_158_length_724_cov_96.4715_ID_315	724	Plasmid
NODE_160_length_699_cov_128.33_ID_319	699	Plasmid
NODE_161_length_686_cov_172.412_ID_321	686	Chromosome
NODE_162_length_681_cov_111.284_ID_323	681	Plasmid
NODE_163_length_675_cov_3830.3_ID_325	675	Plasmid
NODE_164_length_662_cov_225.864_ID_327	662	Chromosome
NODE_165_length_634_cov_4115.4_ID_329	634	Plasmid
NODE_166_length_610_cov_93.3252_ID_331	610	Chromosome
NODE_167_length_608_cov_72.9456_ID_333	608	Chromosome
NODE_168_length_605_cov_184.264_ID_335	605	Chromosome
NODE_169_length_592_cov_123.752_ID_337	592	Chromosome
NODE_170_length_589_cov_497.696_ID_339	589	Chromosome
NODE_171_length_564_cov_25.7607_ID_341	564	Plasmid
NODE_173_length_547_cov_78.2331_ID_345	547	Plasmid
NODE_172_length_547_cov_65.2775_ID_343	547	Plasmid
NODE_174_length_546_cov_64.1787_ID_347	546	Chromosome
NODE_175_length_534_cov_68.2773_ID_349	534	Chromosome
NODE_176_length_529_cov_127.383_ID_351	529	Plasmid
NODE_178_length_522_cov_38.5928_ID_355	522	Chromosome
NODE_1_length_114323_cov_39.1165_ID_1	114323	Chromosome
NODE_2_length_113077_cov_39.4702_ID_3	113077	Chromosome
NODE_3_length_107352_cov_40.4857_ID_5	107352	Chromosome
NODE_4_length_106722_cov_38.9931_ID_7	106722	Chromosome
NODE_5_length_100348_cov_39.3503_ID_9	100348	Chromosome
NODE_6_length_100017_cov_38.5794_ID_11	100017	Chromosome
NODE_7_length_90998_cov_36.8043_ID_13	90998	Chromosome
NODE_8_length_86222_cov_46.5717_ID_15	86222	Plasmid
NODE_9_length_86205_cov_35.8994_ID_17	86205	Chromosome
NODE_10_length_81454_cov_42.1543_ID_19	81454	Chromosome
NODE_11_length_76240_cov_37.7515_ID_21	76240	Chromosome
NODE_12_length_76182_cov_36.6675_ID_23	76182	Chromosome
NODE_13_length_61924_cov_39.3954_ID_25	61924	Chromosome
NODE_14_length_61213_cov_37.6145_ID_27	61213	Chromosome
NODE_15_length_56541_cov_40.1259_ID_29	56541	Chromosome
NODE_16_length_49346_cov_40.1043_ID_31	49346	Plasmid
NODE_17_length_45035_cov_40.6748_ID_33	45035	Chromosome
NODE_18_length_43654_cov_38.4471_ID_35	43654	Chromosome
NODE_19_length_39534_cov_39.7011_ID_37	39534	Chromosome
NODE_20_length_39168_cov_38.0092_ID_39	39168	Chromosome
NODE_21_length_38803_cov_35.6145_ID_41	38803	Chromosome
NODE_22_length_38326_cov_40.7543_ID_43	38326	Chromosome
NODE_23_length_36107_cov_40.3288_ID_45	36107	Chromosome
NODE_24_length_35119_cov_40.1259_ID_47	35119	Chromosome
NODE_25_length_33260_cov_43.9226_ID_49	33260	Chromosome
NODE_26_length_33182_cov_38.2297_ID_51	33182	Chromosome
NODE_27_length_32689_cov_39.2356_ID_53	32689	Chromosome
NODE_28_length_32650_cov_42.8003_ID_55	32650	Chromosome
NODE_29_length_29420_cov_40.7311_ID_57	29420	Chromosome
NODE_30_length_28187_cov_39.9455_ID_59	28187	Chromosome
NODE_31_length_26020_cov_37.3575_ID_61	26020	Chromosome
NODE_32_length_25961_cov_41.2223_ID_63	25961	Plasmid
NODE_33_length_24029_cov_41.2773_ID_65	24029	Chromosome
NODE_34_length_23826_cov_41.0432_ID_67	23826	Chromosome
NODE_35_length_23672_cov_39.7248_ID_69	23672	Chromosome
NODE_36_length_22926_cov_74.4686_ID_71	22926	Plasmid
NODE_37_length_20947_cov_39.2352_ID_73	20947	Chromosome
NODE_38_length_20902_cov_37.0881_ID_75	20902	Chromosome
NODE_39_length_20330_cov_38.5948_ID_77	20330	Chromosome
NODE_40_length_19470_cov_41.0575_ID_79	19470	Plasmid
NODE_41_length_19157_cov_27.6651_ID_81	19157	Plasmid
NODE_42_length_18408_cov_41.4543_ID_83	18408	Chromosome
NODE_43_length_18357_cov_78.2779_ID_85	18357	Chromosome
NODE_44_length_17339_cov_40.8527_ID_87	17339	Chromosome
NODE_45_length_17222_cov_36.7894_ID_89	17222	Chromosome
NODE_46_length_16769_cov_25.6735_ID_91	16769	Chromosome
NODE_47_length_16598_cov_41.6844_ID_93	16598	Chromosome
NODE_48_length_16149_cov_35.4898_ID_95	16149	Chromosome
NODE_49_length_16121_cov_36.6786_ID_97	16121	Chromosome
NODE_50_length_15875_cov_37.6593_ID_99	15875	Chromosome
NODE_51_length_15842_cov_39.933_ID_101	15842	Chromosome
NODE_52_length_15617_cov_36.3962_ID_103	15617	Chromosome
NODE_53_length_15404_cov_38.0042_ID_105	15404	Chromosome
NODE_54_length_14689_cov_38.8945_ID_107	14689	Chromosome
NODE_55_length_14069_cov_23.9568_ID_109	14069	Chromosome
NODE_56_length_13979_cov_41.4271_ID_111	13979	Chromosome
NODE_57_length_13965_cov_35.7313_ID_113	13965	Chromosome
NODE_58_length_13666_cov_39.9342_ID_115	13666	Chromosome
NODE_59_length_13552_cov_37.505_ID_117	13552	Chromosome
NODE_60_length_13180_cov_38.6624_ID_119	13180	Chromosome
NODE_61_length_12462_cov_37.8104_ID_121	12462	Plasmid
NODE_62_length_11536_cov_37.9193_ID_123	11536	Chromosome
NODE_63_length_11179_cov_33.185_ID_125	11179	Chromosome
NODE_64_length_10831_cov_26.1463_ID_127	10831	Chromosome
NODE_65_length_9585_cov_41.1505_ID_129	9585	Chromosome
NODE_66_length_9292_cov_111.813_ID_131	9292	Chromosome
NODE_67_length_8647_cov_38.5464_ID_133	8647	Plasmid
NODE_68_length_8579_cov_50.8043_ID_135	8579	Plasmid
NODE_69_length_8475_cov_35.8_ID_137	8475	Plasmid
NODE_70_length_8448_cov_34.297_ID_139	8448	Plasmid
NODE_71_length_8266_cov_42.5294_ID_141	8266	Plasmid
NODE_72_length_8259_cov_23.1753_ID_143	8259	Chromosome
NODE_73_length_8162_cov_112.087_ID_145	8162	Plasmid
NODE_74_length_7915_cov_43.1532_ID_147	7915	Chromosome
NODE_75_length_7885_cov_36.4131_ID_149	7885	Chromosome
NODE_76_length_7691_cov_41.3619_ID_151	7691	Chromosome
NODE_77_length_7221_cov_35.6891_ID_153	7221	Chromosome
NODE_78_length_7199_cov_38.2136_ID_155	7199	Chromosome
NODE_79_length_6989_cov_39.98_ID_157	6989	Chromosome
NODE_80_length_6808_cov_25.7594_ID_159	6808	Chromosome
NODE_81_length_6502_cov_38.639_ID_161	6502	Chromosome
NODE_82_length_6459_cov_23.4695_ID_163	6459	Chromosome
NODE_83_length_6439_cov_36.3979_ID_165	6439	Plasmid
NODE_84_length_6031_cov_25.678_ID_167	6031	Chromosome
NODE_85_length_5975_cov_48.5225_ID_169	5975	Chromosome
NODE_86_length_5261_cov_34.0397_ID_171	5261	Plasmid
NODE_87_length_5232_cov_74.9106_ID_173	5232	Chromosome
NODE_88_length_5176_cov_37.5756_ID_175	5176	Chromosome
NODE_89_length_5076_cov_65.6033_ID_177	5076	Plasmid
NODE_90_length_5071_cov_27.1924_ID_179	5071	Plasmid
NODE_91_length_4963_cov_24.9315_ID_181	4963	Plasmid
NODE_92_length_4961_cov_44.2067_ID_183	4961	Chromosome
NODE_93_length_4920_cov_34.2093_ID_185	4920	Chromosome
NODE_94_length_4745_cov_38.5006_ID_187	4745	Chromosome
NODE_95_length_4680_cov_43.0775_ID_189	4680	Plasmid
NODE_96_length_4512_cov_25.3153_ID_191	4512	Chromosome
NODE_97_length_4475_cov_43.8793_ID_193	4475	Plasmid
NODE_98_length_4368_cov_39.2896_ID_195	4368	Plasmid
NODE_99_length_4137_cov_439.038_ID_197	4137	Plasmid
NODE_100_length_4073_cov_83.1081_ID_199	4073	Chromosome
NODE_101_length_3991_cov_53.4164_ID_201	3991	Chromosome
NODE_102_length_3906_cov_24.1164_ID_203	3906	Chromosome
NODE_103_length_3872_cov_25.9897_ID_205	3872	Plasmid
NODE_104_length_3806_cov_25.8266_ID_207	3806	Plasmid
NODE_105_length_3679_cov_76.1232_ID_209	3679	Chromosome
NODE_106_length_3543_cov_76.0386_ID_211	3543	Plasmid
NODE_107_length_3453_cov_35.1859_ID_213	3453	Plasmid
NODE_108_length_3396_cov_214.644_ID_215	3396	Plasmid
NODE_109_length_3224_cov_40.6424_ID_217	3224	Plasmid
NODE_110_length_3178_cov_40.7399_ID_219	3178	Chromosome
NODE_111_length_3105_cov_36.8874_ID_221	3105	Chromosome
NODE_112_length_3005_cov_41.9942_ID_223	3005	Plasmid
NODE_113_length_2897_cov_49.0085_ID_225	2897	Chromosome
NODE_114_length_2781_cov_75.4472_ID_227	2781	Plasmid
NODE_115_length_2771_cov_98.9585_ID_229	2771	Plasmid
NODE_116_length_2723_cov_78.9996_ID_231	2723	Plasmid
NODE_117_length_2715_cov_51.7591_ID_233	2715	Plasmid
NODE_118_length_2699_cov_25.2759_ID_235	2699	Plasmid
NODE_119_length_2692_cov_41.5288_ID_237	2692	Plasmid
NODE_120_length_2690_cov_77.122_ID_239	2690	Plasmid
NODE_121_length_2621_cov_25.209_ID_241	2621	Plasmid
NODE_122_length_2557_cov_38.4956_ID_243	2557	Plasmid
NODE_123_length_2508_cov_24.1065_ID_245	2508	Chromosome
NODE_124_length_2497_cov_23.0851_ID_247	2497	Plasmid
NODE_125_length_2454_cov_93.1366_ID_249	2454	Chromosome
NODE_126_length_2403_cov_24.5408_ID_251	2403	Plasmid
NODE_127_length_2328_cov_23.9001_ID_253	2328	Plasmid
NODE_128_length_2318_cov_3.25279_ID_255	2318	Chromosome
NODE_129_length_2274_cov_177.252_ID_257	2274	Chromosome
NODE_130_length_2247_cov_24.8987_ID_259	2247	Plasmid
NODE_131_length_2235_cov_163.495_ID_261	2235	Plasmid
NODE_132_length_2149_cov_72.4499_ID_263	2149	Chromosome
NODE_133_length_2068_cov_4.46814_ID_265	2068	Plasmid
NODE_134_length_2042_cov_40.998_ID_267	2042	Plasmid
NODE_135_length_2012_cov_25.2292_ID_269	2012	Plasmid
NODE_136_length_1971_cov_47.943_ID_271	1971	Plasmid
NODE_137_length_1930_cov_42.4318_ID_273	1930	Plasmid
NODE_138_length_1887_cov_41.9029_ID_275	1887	Plasmid
NODE_139_length_1791_cov_246.763_ID_277	1791	Chromosome
NODE_140_length_1770_cov_205.429_ID_279	1770	Chromosome
NODE_141_length_1750_cov_25.2351_ID_281	1750	Chromosome
NODE_142_length_1747_cov_41.0718_ID_283	1747	Plasmid
NODE_143_length_1712_cov_40.6665_ID_285	1712	Plasmid
NODE_144_length_1679_cov_202.361_ID_287	1679	Plasmid
NODE_146_length_1628_cov_230.985_ID_291	1628	Plasmid
NODE_145_length_1628_cov_82.519_ID_289	1628	Plasmid
NODE_147_length_1617_cov_23.8599_ID_293	1617	Chromosome
NODE_149_length_1597_cov_32.025_ID_297	1597	Plasmid
NODE_150_length_1582_cov_62.6359_ID_299	1582	Plasmid
NODE_151_length_1557_cov_43.9912_ID_301	1557	Plasmid
NODE_152_length_1533_cov_39.7058_ID_303	1533	Plasmid
NODE_153_length_1519_cov_53.9114_ID_305	1519	Plasmid
NODE_154_length_1495_cov_39.5711_ID_307	1495	Chromosome
NODE_155_length_1480_cov_24.8093_ID_309	1480	Plasmid
NODE_156_length_1466_cov_117.439_ID_311	1466	Plasmid
NODE_157_length_1465_cov_45.7871_ID_313	1465	Plasmid
NODE_159_length_1453_cov_56.5196_ID_317	1453	Chromosome
NODE_158_length_1453_cov_37.992_ID_315	1453	Plasmid
NODE_160_length_1435_cov_27.1221_ID_319	1435	Plasmid
NODE_161_length_1407_cov_169.116_ID_321	1407	Plasmid
NODE_162_length_1400_cov_24.8498_ID_323	1400	Plasmid
NODE_163_length_1366_cov_161.765_ID_325	1366	Chromosome
NODE_164_length_1348_cov_37.1854_ID_327	1348	Chromosome
NODE_165_length_1324_cov_142.983_ID_329	1324	Plasmid
NODE_166_length_1301_cov_118.375_ID_331	1301	Chromosome
NODE_167_length_1296_cov_70.9509_ID_333	1296	Plasmid
NODE_169_length_1188_cov_35.0099_ID_337	1188	Plasmid
NODE_170_length_1171_cov_25.1661_ID_339	1171	Chromosome
NODE_171_length_1164_cov_4.44261_ID_341	1164	Chromosome
NODE_172_length_1136_cov_6.23186_ID_343	1136	Chromosome
NODE_173_length_1113_cov_431.532_ID_345	1113	Chromosome
NODE_174_length_1097_cov_40.8591_ID_347	1097	Plasmid
NODE_175_length_1052_cov_159.797_ID_349	1052	Chromosome
NODE_176_length_1022_cov_47.0718_ID_351	1022	Chromosome
NODE_177_length_1016_cov_8.38151_ID_353	1016	Chromosome
NODE_178_length_1004_cov_22.7686_ID_355	1004	Chromosome
NODE_179_length_988_cov_104.303_ID_357	988	Plasmid
NODE_180_length_986_cov_89.7593_ID_359	986	Chromosome
NODE_181_length_982_cov_77.6626_ID_361	982	Plasmid
NODE_183_length_953_cov_71.2175_ID_365	953	Chromosome
NODE_184_length_942_cov_44.1961_ID_367	942	Plasmid
NODE_185_length_905_cov_67.8518_ID_369	905	Chromosome
NODE_186_length_904_cov_92.3727_ID_371	904	Plasmid
NODE_187_length_898_cov_3.37455_ID_373	898	Plasmid
NODE_188_length_838_cov_26.7457_ID_375	838	Chromosome
NODE_190_length_806_cov_59.8372_ID_379	806	Plasmid
NODE_191_length_801_cov_228.128_ID_381	801	Plasmid
NODE_192_length_791_cov_3.57542_ID_383	791	Plasmid
NODE_193_length_788_cov_106.16_ID_385	788	Plasmid
NODE_195_length_758_cov_73.2964_ID_389	758	Plasmid
NODE_197_length_754_cov_24.0692_ID_393	754	Plasmid
NODE_198_length_742_cov_165.909_ID_395	742	Chromosome
NODE_199_length_741_cov_29.8213_ID_397	741	Chromosome
NODE_201_length_731_cov_106_ID_401	731	Plasmid
NODE_202_length_728_cov_41.7473_ID_403	728	Chromosome
NODE_205_length_699_cov_66.7276_ID_409	699	Plasmid
NODE_206_length_694_cov_142.898_ID_411	694	Plasmid
NODE_207_length_691_cov_27.9432_ID_413	691	Plasmid
NODE_208_length_690_cov_172.35_ID_415	690	Plasmid
NODE_214_length_631_cov_33.6942_ID_427	631	Plasmid
NODE_215_length_612_cov_29.2626_ID_429	612	Plasmid
NODE_216_length_578_cov_43.9384_ID_431	578	Chromosome
NODE_217_length_575_cov_168.114_ID_433	575	Plasmid
NODE_225_length_504_cov_227.1_ID_449	504	Plasmid
NODE_224_length_504_cov_28.1492_ID_447	504	Chromosome
NODE_1_length_108910_cov_28.9183_ID_1	108910	Chromosome
NODE_2_length_100762_cov_33.7269_ID_3	100762	Chromosome
NODE_3_length_96545_cov_33.7195_ID_5	96545	Chromosome
NODE_4_length_93672_cov_34.4165_ID_7	93672	Chromosome
NODE_5_length_93338_cov_25.8399_ID_9	93338	Chromosome
NODE_6_length_91767_cov_30.4488_ID_11	91767	Chromosome
NODE_7_length_80517_cov_31.3924_ID_13	80517	Plasmid
NODE_8_length_80280_cov_34.3707_ID_15	80280	Plasmid
NODE_9_length_79343_cov_29.0824_ID_17	79343	Chromosome
NODE_10_length_76686_cov_30.9027_ID_19	76686	Chromosome
NODE_11_length_72362_cov_29.6963_ID_21	72362	Chromosome
NODE_12_length_61420_cov_24.6892_ID_23	61420	Chromosome
NODE_13_length_60182_cov_27.6002_ID_25	60182	Chromosome
NODE_14_length_54799_cov_31.2338_ID_27	54799	Plasmid
NODE_15_length_50203_cov_30.7686_ID_29	50203	Plasmid
NODE_16_length_48987_cov_25.0467_ID_31	48987	Chromosome
NODE_17_length_48782_cov_24.5333_ID_33	48782	Chromosome
NODE_18_length_47625_cov_31.9604_ID_35	47625	Chromosome
NODE_19_length_47486_cov_27.6859_ID_37	47486	Plasmid
NODE_20_length_45861_cov_33.8227_ID_39	45861	Plasmid
NODE_21_length_44886_cov_30.6845_ID_41	44886	Chromosome
NODE_22_length_43528_cov_33.5502_ID_43	43528	Chromosome
NODE_23_length_42481_cov_30.5984_ID_45	42481	Chromosome
NODE_24_length_41212_cov_32.5872_ID_47	41212	Chromosome
NODE_25_length_36722_cov_31.7167_ID_49	36722	Chromosome
NODE_26_length_36677_cov_26.2994_ID_51	36677	Chromosome
NODE_27_length_35369_cov_30.9575_ID_53	35369	Chromosome
NODE_28_length_35116_cov_24.5561_ID_55	35116	Chromosome
NODE_29_length_34560_cov_49.111_ID_57	34560	Chromosome
NODE_30_length_34530_cov_25.5007_ID_59	34530	Chromosome
NODE_31_length_34271_cov_28.8019_ID_61	34271	Chromosome
NODE_32_length_32686_cov_30.1086_ID_63	32686	Chromosome
NODE_33_length_32077_cov_36.5432_ID_65	32077	Plasmid
NODE_34_length_32057_cov_28.3939_ID_67	32057	Chromosome
NODE_35_length_31483_cov_29.6889_ID_69	31483	Plasmid
NODE_36_length_31166_cov_26.6731_ID_71	31166	Chromosome
NODE_37_length_29327_cov_30.9609_ID_73	29327	Chromosome
NODE_38_length_28185_cov_31.8562_ID_75	28185	Chromosome
NODE_39_length_27521_cov_34.3421_ID_77	27521	Chromosome
NODE_40_length_27385_cov_31.6048_ID_79	27385	Chromosome
NODE_41_length_26923_cov_24.2582_ID_81	26923	Chromosome
NODE_42_length_26801_cov_23.0446_ID_83	26801	Chromosome
NODE_43_length_26319_cov_23.5532_ID_85	26319	Chromosome
NODE_44_length_25961_cov_25.1394_ID_87	25961	Chromosome
NODE_45_length_25822_cov_31.1336_ID_89	25822	Chromosome
NODE_46_length_25160_cov_23.1237_ID_91	25160	Plasmid
NODE_47_length_24411_cov_24.6918_ID_93	24411	Chromosome
NODE_48_length_23767_cov_29.9683_ID_95	23767	Plasmid
NODE_49_length_23615_cov_27.5328_ID_97	23615	Chromosome
NODE_50_length_23418_cov_28.3054_ID_99	23418	Chromosome
NODE_51_length_22725_cov_30.3083_ID_101	22725	Chromosome
NODE_52_length_22684_cov_27.0999_ID_103	22684	Chromosome
NODE_53_length_20078_cov_25.9021_ID_105	20078	Chromosome
NODE_54_length_19837_cov_26.571_ID_107	19837	Chromosome
NODE_55_length_19770_cov_37.1099_ID_109	19770	Plasmid
NODE_56_length_17485_cov_23.5797_ID_111	17485	Chromosome
NODE_57_length_17337_cov_33.7124_ID_113	17337	Chromosome
NODE_58_length_15360_cov_37.4521_ID_115	15360	Chromosome
NODE_59_length_15345_cov_25.8644_ID_117	15345	Chromosome
NODE_60_length_14949_cov_26.2413_ID_119	14949	Chromosome
NODE_61_length_13960_cov_23.9888_ID_121	13960	Chromosome
NODE_62_length_13887_cov_45.5049_ID_123	13887	Plasmid
NODE_63_length_13596_cov_37.4714_ID_125	13596	Chromosome
NODE_64_length_13302_cov_32.6673_ID_127	13302	Chromosome
NODE_65_length_13161_cov_23.0452_ID_129	13161	Chromosome
NODE_66_length_12895_cov_25.3359_ID_131	12895	Chromosome
NODE_67_length_12892_cov_26.6429_ID_133	12892	Chromosome
NODE_68_length_12585_cov_26.6113_ID_135	12585	Chromosome
NODE_69_length_12430_cov_30.0196_ID_137	12430	Plasmid
NODE_70_length_12413_cov_38.2634_ID_139	12413	Chromosome
NODE_71_length_12397_cov_50.622_ID_141	12397	Plasmid
NODE_72_length_11174_cov_25.2812_ID_143	11174	Chromosome
NODE_73_length_10235_cov_28.7316_ID_145	10235	Chromosome
NODE_74_length_10027_cov_30.6236_ID_147	10027	Chromosome
NODE_75_length_9583_cov_279.204_ID_149	9583	Plasmid
NODE_76_length_8967_cov_36.4572_ID_151	8967	Chromosome
NODE_77_length_8646_cov_26.8019_ID_153	8646	Plasmid
NODE_78_length_8449_cov_23.6174_ID_155	8449	Plasmid
NODE_79_length_7753_cov_24.4107_ID_157	7753	Chromosome
NODE_80_length_7723_cov_33.9133_ID_159	7723	Chromosome
NODE_81_length_6545_cov_28.7709_ID_161	6545	Chromosome
NODE_82_length_6439_cov_28.8077_ID_163	6439	Plasmid
NODE_83_length_6181_cov_23.2422_ID_165	6181	Plasmid
NODE_84_length_6091_cov_443.683_ID_167	6091	Plasmid
NODE_85_length_6066_cov_35.2984_ID_169	6066	Chromosome
NODE_86_length_6058_cov_37.9661_ID_171	6058	Chromosome
NODE_87_length_5922_cov_25.4452_ID_173	5922	Plasmid
NODE_88_length_5823_cov_35.8031_ID_175	5823	Chromosome
NODE_89_length_5813_cov_36.6152_ID_177	5813	Chromosome
NODE_90_length_5671_cov_68.483_ID_179	5671	Chromosome
NODE_91_length_5590_cov_40.6063_ID_181	5590	Plasmid
NODE_92_length_5465_cov_26.6011_ID_183	5465	Plasmid
NODE_93_length_5177_cov_21.9694_ID_185	5177	Chromosome
NODE_94_length_5104_cov_34.7397_ID_187	5104	Chromosome
NODE_95_length_5085_cov_24.3375_ID_189	5085	Plasmid
NODE_96_length_4881_cov_90.5911_ID_191	4881	Chromosome
NODE_97_length_4788_cov_45.234_ID_193	4788	Chromosome
NODE_98_length_4749_cov_33.1018_ID_195	4749	Chromosome
NODE_99_length_4630_cov_24.6786_ID_197	4630	Plasmid
NODE_100_length_4589_cov_35.8206_ID_199	4589	Plasmid
NODE_101_length_4586_cov_27.8278_ID_201	4586	Chromosome
NODE_102_length_4576_cov_35.4881_ID_203	4576	Chromosome
NODE_103_length_4572_cov_38.3467_ID_205	4572	Chromosome
NODE_104_length_4483_cov_31.8641_ID_207	4483	Plasmid
NODE_105_length_4379_cov_70.8216_ID_209	4379	Chromosome
NODE_106_length_4339_cov_24.8363_ID_211	4339	Plasmid
NODE_107_length_4324_cov_44.9767_ID_213	4324	Plasmid
NODE_108_length_4190_cov_21.975_ID_215	4190	Plasmid
NODE_109_length_4108_cov_30.6576_ID_217	4108	Plasmid
NODE_110_length_3765_cov_1176.18_ID_219	3765	Plasmid
NODE_111_length_3593_cov_45.0614_ID_221	3593	Chromosome
NODE_112_length_3396_cov_240.525_ID_223	3396	Plasmid
NODE_113_length_3143_cov_65.1825_ID_225	3143	Chromosome
NODE_114_length_3107_cov_23.5218_ID_227	3107	Chromosome
NODE_115_length_3094_cov_125.649_ID_229	3094	Plasmid
NODE_116_length_3022_cov_1301.92_ID_231	3022	Plasmid
NODE_117_length_2802_cov_66.0092_ID_233	2802	Plasmid
NODE_118_length_2554_cov_25.4958_ID_235	2554	Plasmid
NODE_119_length_2514_cov_28.6814_ID_237	2514	Chromosome
NODE_120_length_2466_cov_36.9394_ID_239	2466	Plasmid
NODE_121_length_2371_cov_37.5923_ID_241	2371	Plasmid
NODE_122_length_2345_cov_178.3_ID_243	2345	Chromosome
NODE_123_length_2195_cov_48.4453_ID_245	2195	Chromosome
NODE_124_length_2045_cov_56.2051_ID_247	2045	Plasmid
NODE_125_length_2036_cov_72.5719_ID_249	2036	Plasmid
NODE_126_length_1901_cov_103.275_ID_251	1901	Chromosome
NODE_127_length_1891_cov_34.9367_ID_253	1891	Chromosome
NODE_128_length_1789_cov_170.8_ID_255	1789	Chromosome
NODE_129_length_1770_cov_227.18_ID_257	1770	Chromosome
NODE_130_length_1747_cov_47.39_ID_259	1747	Plasmid
NODE_131_length_1689_cov_2334.28_ID_261	1689	Plasmid
NODE_132_length_1634_cov_27.8352_ID_263	1634	Chromosome
NODE_133_length_1527_cov_64.0227_ID_265	1527	Plasmid
NODE_134_length_1507_cov_408.311_ID_267	1507	Plasmid
NODE_135_length_1502_cov_112.903_ID_269	1502	Plasmid
NODE_136_length_1487_cov_36.4618_ID_271	1487	Chromosome
NODE_137_length_1474_cov_36.6143_ID_273	1474	Plasmid
NODE_138_length_1466_cov_153.096_ID_275	1466	Plasmid
NODE_139_length_1368_cov_72.8724_ID_277	1368	Chromosome
NODE_140_length_1344_cov_235.626_ID_279	1344	Plasmid
NODE_141_length_1282_cov_50.4134_ID_281	1282	Plasmid
NODE_142_length_1259_cov_29.4738_ID_283	1259	Plasmid
NODE_143_length_1217_cov_42.9658_ID_285	1217	Plasmid
NODE_144_length_1215_cov_27.6904_ID_287	1215	Chromosome
NODE_145_length_1202_cov_25.2609_ID_289	1202	Plasmid
NODE_146_length_1154_cov_23.2354_ID_291	1154	Plasmid
NODE_147_length_1150_cov_41.8512_ID_293	1150	Chromosome
NODE_148_length_1128_cov_325.321_ID_295	1128	Plasmid
NODE_149_length_1095_cov_38.0176_ID_297	1095	Plasmid
NODE_150_length_1064_cov_311.89_ID_299	1064	Plasmid
NODE_151_length_1062_cov_40.4316_ID_301	1062	Plasmid
NODE_152_length_1028_cov_115.629_ID_303	1028	Plasmid
NODE_153_length_983_cov_41.0055_ID_305	983	Chromosome
NODE_154_length_982_cov_75.0022_ID_307	982	Chromosome
NODE_155_length_954_cov_67.7179_ID_309	954	Plasmid
NODE_156_length_925_cov_52.8834_ID_311	925	Chromosome
NODE_157_length_914_cov_56.907_ID_313	914	Plasmid
NODE_158_length_865_cov_41.281_ID_315	865	Plasmid
NODE_159_length_863_cov_66.1104_ID_317	863	Chromosome
NODE_160_length_849_cov_21.5646_ID_319	849	Plasmid
NODE_161_length_787_cov_306.083_ID_321	787	Plasmid
NODE_163_length_759_cov_97.9591_ID_325	759	Plasmid
NODE_162_length_759_cov_51.4934_ID_323	759	Plasmid
NODE_164_length_750_cov_68.3215_ID_327	750	Plasmid
NODE_165_length_742_cov_144.529_ID_329	742	Chromosome
NODE_166_length_740_cov_121.328_ID_331	740	Plasmid
NODE_167_length_726_cov_29.3241_ID_333	726	Chromosome
NODE_168_length_719_cov_133.741_ID_335	719	Plasmid
NODE_169_length_689_cov_564.668_ID_337	689	Plasmid
NODE_170_length_684_cov_18.8128_ID_339	684	Plasmid
NODE_171_length_666_cov_35.2589_ID_341	666	Chromosome
NODE_172_length_665_cov_25.7475_ID_343	665	Plasmid
NODE_173_length_659_cov_588.574_ID_345	659	Chromosome
NODE_174_length_656_cov_76.9742_ID_347	656	Chromosome
NODE_175_length_651_cov_431.519_ID_349	651	Plasmid
NODE_176_length_644_cov_32.8946_ID_351	644	Chromosome
NODE_177_length_562_cov_85.3491_ID_353	562	Chromosome
NODE_178_length_536_cov_38.6529_ID_355	536	Chromosome
NODE_179_length_533_cov_33.9716_ID_357	533	Chromosome
NODE_180_length_517_cov_2270.6_ID_359	517	Plasmid
NODE_181_length_509_cov_28.0253_ID_361	509	Chromosome
NODE_183_length_506_cov_150.613_ID_365	506	Plasmid
NODE_182_length_504_cov_187.541_ID_363	504	Plasmid
NODE_1_length_203872_cov_28.217_ID_1	203872	Chromosome
NODE_2_length_134576_cov_32.6968_ID_3	134576	Chromosome
NODE_3_length_100053_cov_23.2386_ID_5	100053	Chromosome
NODE_4_length_99354_cov_28.4877_ID_7	99354	Chromosome
NODE_5_length_96878_cov_32.8716_ID_9	96878	Chromosome
NODE_6_length_92442_cov_23.9854_ID_11	92442	Chromosome
NODE_7_length_91772_cov_30.5967_ID_13	91772	Chromosome
NODE_8_length_91329_cov_31.3935_ID_15	91329	Chromosome
NODE_9_length_77146_cov_28.0398_ID_17	77146	Chromosome
NODE_10_length_76597_cov_30.9773_ID_19	76597	Chromosome
NODE_11_length_75395_cov_30.3379_ID_21	75395	Chromosome
NODE_12_length_69604_cov_27.8817_ID_23	69604	Chromosome
NODE_13_length_61688_cov_24.5814_ID_25	61688	Chromosome
NODE_14_length_59415_cov_31.6384_ID_27	59415	Plasmid
NODE_15_length_56837_cov_25.487_ID_29	56837	Chromosome
NODE_16_length_56541_cov_29.7327_ID_31	56541	Chromosome
NODE_17_length_47679_cov_32.0769_ID_33	47679	Chromosome
NODE_18_length_46157_cov_23.9576_ID_35	46157	Chromosome
NODE_19_length_43521_cov_22.5229_ID_37	43521	Chromosome
NODE_20_length_40531_cov_22.629_ID_39	40531	Chromosome
NODE_21_length_39350_cov_30.9439_ID_41	39350	Chromosome
NODE_22_length_37428_cov_29.8529_ID_43	37428	Chromosome
NODE_23_length_36704_cov_24.1699_ID_45	36704	Chromosome
NODE_24_length_36065_cov_33.0195_ID_47	36065	Chromosome
NODE_25_length_33506_cov_34.7504_ID_49	33506	Chromosome
NODE_26_length_32065_cov_24.6882_ID_51	32065	Chromosome
NODE_27_length_31489_cov_28.8187_ID_53	31489	Plasmid
NODE_28_length_31275_cov_27.2483_ID_55	31275	Chromosome
NODE_29_length_31272_cov_23.2689_ID_57	31272	Plasmid
NODE_30_length_29262_cov_29.6595_ID_59	29262	Chromosome
NODE_31_length_28297_cov_25.0551_ID_61	28297	Chromosome
NODE_32_length_28062_cov_26.8619_ID_63	28062	Chromosome
NODE_33_length_27322_cov_26.6996_ID_65	27322	Chromosome
NODE_34_length_26206_cov_27.0514_ID_67	26206	Chromosome
NODE_35_length_24731_cov_23.9113_ID_69	24731	Plasmid
NODE_36_length_24591_cov_28.7024_ID_71	24591	Chromosome
NODE_37_length_22703_cov_29.246_ID_73	22703	Chromosome
NODE_38_length_22475_cov_23.8531_ID_75	22475	Plasmid
NODE_39_length_21253_cov_33.4572_ID_77	21253	Plasmid
NODE_40_length_20956_cov_26.0387_ID_79	20956	Chromosome
NODE_41_length_20184_cov_29.7703_ID_81	20184	Chromosome
NODE_42_length_19938_cov_26.28_ID_83	19938	Chromosome
NODE_43_length_18993_cov_32.8777_ID_85	18993	Plasmid
NODE_44_length_18399_cov_27.7023_ID_87	18399	Chromosome
NODE_45_length_17332_cov_25.1596_ID_89	17332	Chromosome
NODE_46_length_17161_cov_29.9867_ID_91	17161	Chromosome
NODE_47_length_16958_cov_34.1983_ID_93	16958	Plasmid
NODE_48_length_15842_cov_29.5035_ID_95	15842	Chromosome
NODE_49_length_15453_cov_30.2634_ID_97	15453	Chromosome
NODE_50_length_14455_cov_27.0156_ID_99	14455	Chromosome
NODE_51_length_14100_cov_24.2836_ID_101	14100	Chromosome
NODE_52_length_14007_cov_29.845_ID_103	14007	Plasmid
NODE_53_length_13754_cov_23.4579_ID_105	13754	Chromosome
NODE_54_length_13470_cov_55.8737_ID_107	13470	Plasmid
NODE_55_length_13356_cov_33.2878_ID_109	13356	Chromosome
NODE_56_length_13239_cov_24.5299_ID_111	13239	Chromosome
NODE_57_length_11040_cov_34.2768_ID_113	11040	Chromosome
NODE_58_length_10664_cov_32.5917_ID_115	10664	Chromosome
NODE_59_length_10031_cov_23.2446_ID_117	10031	Chromosome
NODE_60_length_9758_cov_36.4204_ID_119	9758	Plasmid
NODE_61_length_9493_cov_21.7436_ID_121	9493	Chromosome
NODE_62_length_9471_cov_23.121_ID_123	9471	Plasmid
NODE_63_length_9191_cov_28.326_ID_125	9191	Plasmid
NODE_64_length_8906_cov_38.1139_ID_127	8906	Plasmid
NODE_65_length_8811_cov_31.1627_ID_129	8811	Plasmid
NODE_66_length_8709_cov_52.5146_ID_131	8709	Plasmid
NODE_67_length_8509_cov_52.3103_ID_133	8509	Plasmid
NODE_68_length_8438_cov_29.2127_ID_135	8438	Plasmid
NODE_69_length_8427_cov_26.5298_ID_137	8427	Plasmid
NODE_70_length_8269_cov_37.397_ID_139	8269	Chromosome
NODE_71_length_7997_cov_24.0188_ID_141	7997	Chromosome
NODE_72_length_7937_cov_33.9518_ID_143	7937	Plasmid
NODE_73_length_7752_cov_24.4352_ID_145	7752	Chromosome
NODE_74_length_6660_cov_77.6044_ID_147	6660	Plasmid
NODE_75_length_6626_cov_27.0991_ID_149	6626	Chromosome
NODE_76_length_6579_cov_40.056_ID_151	6579	Chromosome
NODE_77_length_6378_cov_385.779_ID_153	6378	Plasmid
NODE_78_length_6350_cov_59.2978_ID_155	6350	Chromosome
NODE_79_length_6013_cov_27.046_ID_157	6013	Chromosome
NODE_80_length_5908_cov_24.4883_ID_159	5908	Plasmid
NODE_81_length_5880_cov_24.0076_ID_161	5880	Plasmid
NODE_82_length_5803_cov_25.5784_ID_163	5803	Plasmid
NODE_83_length_5244_cov_50.3836_ID_165	5244	Plasmid
NODE_84_length_5183_cov_57.814_ID_167	5183	Plasmid
NODE_85_length_5079_cov_28.8431_ID_169	5079	Plasmid
NODE_86_length_4536_cov_305.773_ID_171	4536	Plasmid
NODE_87_length_4533_cov_50.858_ID_173	4533	Plasmid
NODE_88_length_4490_cov_198.282_ID_175	4490	Plasmid
NODE_89_length_4447_cov_476.606_ID_177	4447	Chromosome
NODE_90_length_4224_cov_30.9858_ID_179	4224	Plasmid
NODE_91_length_4194_cov_33.1214_ID_181	4194	Chromosome
NODE_92_length_3912_cov_373.366_ID_183	3912	Plasmid
NODE_93_length_3879_cov_72.4077_ID_185	3879	Chromosome
NODE_94_length_3642_cov_54.9052_ID_187	3642	Plasmid
NODE_95_length_3632_cov_284.094_ID_189	3632	Plasmid
NODE_96_length_3543_cov_52.109_ID_191	3543	Chromosome
NODE_97_length_3433_cov_58.8883_ID_193	3433	Plasmid
NODE_98_length_3396_cov_238.747_ID_195	3396	Plasmid
NODE_99_length_3167_cov_554.07_ID_197	3167	Plasmid
NODE_100_length_3143_cov_109.887_ID_199	3143	Plasmid
NODE_101_length_2727_cov_91.1463_ID_201	2727	Chromosome
NODE_102_length_2557_cov_25.7514_ID_203	2557	Plasmid
NODE_103_length_2381_cov_69.3118_ID_205	2381	Chromosome
NODE_104_length_2345_cov_79.8379_ID_207	2345	Chromosome
NODE_105_length_2288_cov_29.6222_ID_209	2288	Plasmid
NODE_106_length_2247_cov_58.5244_ID_211	2247	Plasmid
NODE_107_length_2235_cov_87.7264_ID_213	2235	Chromosome
NODE_108_length_2143_cov_87.6475_ID_215	2143	Chromosome
NODE_109_length_2119_cov_20.8567_ID_217	2119	Plasmid
NODE_110_length_2054_cov_101.753_ID_219	2054	Plasmid
NODE_111_length_2037_cov_96.9439_ID_221	2037	Plasmid
NODE_112_length_2007_cov_1077.27_ID_223	2007	Plasmid
NODE_113_length_1951_cov_20.7745_ID_225	1951	Plasmid
NODE_114_length_1846_cov_24.0147_ID_227	1846	Plasmid
NODE_115_length_1837_cov_54.5295_ID_229	1837	Plasmid
NODE_116_length_1799_cov_58.1131_ID_231	1799	Chromosome
NODE_117_length_1788_cov_182.569_ID_233	1788	Chromosome
NODE_118_length_1770_cov_233.21_ID_235	1770	Chromosome
NODE_119_length_1757_cov_51.6119_ID_237	1757	Chromosome
NODE_120_length_1728_cov_230.309_ID_239	1728	Plasmid
NODE_121_length_1717_cov_56.3654_ID_241	1717	Chromosome
NODE_122_length_1610_cov_25.587_ID_243	1610	Plasmid
NODE_123_length_1574_cov_30.6698_ID_245	1574	Chromosome
NODE_124_length_1521_cov_18.6037_ID_247	1521	Plasmid
NODE_125_length_1515_cov_30.8104_ID_249	1515	Chromosome
NODE_126_length_1514_cov_224.353_ID_251	1514	Plasmid
NODE_127_length_1498_cov_59.2741_ID_253	1498	Plasmid
NODE_128_length_1496_cov_28.7347_ID_255	1496	Plasmid
NODE_129_length_1475_cov_91.4686_ID_257	1475	Chromosome
NODE_130_length_1466_cov_176.629_ID_259	1466	Plasmid
NODE_131_length_1465_cov_172.124_ID_261	1465	Plasmid
NODE_132_length_1453_cov_19.8135_ID_263	1453	Plasmid
NODE_133_length_1392_cov_77.0532_ID_265	1392	Chromosome
NODE_134_length_1391_cov_103.581_ID_267	1391	Plasmid
NODE_135_length_1374_cov_315.609_ID_269	1374	Plasmid
NODE_136_length_1318_cov_156.172_ID_271	1318	Plasmid
NODE_137_length_1296_cov_27.4554_ID_273	1296	Plasmid
NODE_138_length_1284_cov_329.834_ID_275	1284	Chromosome
NODE_139_length_1217_cov_27.8774_ID_277	1217	Chromosome
NODE_140_length_1159_cov_22.6541_ID_279	1159	Chromosome
NODE_141_length_1158_cov_22.3703_ID_281	1158	Chromosome
NODE_142_length_1062_cov_137.544_ID_283	1062	Plasmid
NODE_143_length_1054_cov_40.8172_ID_285	1054	Plasmid
NODE_144_length_1042_cov_176.333_ID_287	1042	Plasmid
NODE_145_length_1019_cov_74.3771_ID_289	1019	Plasmid
NODE_146_length_1016_cov_35.9107_ID_291	1016	Plasmid
NODE_147_length_1010_cov_305.73_ID_293	1010	Plasmid
NODE_148_length_1003_cov_63.5625_ID_295	1003	Plasmid
NODE_149_length_968_cov_24.9373_ID_297	968	Plasmid
NODE_150_length_960_cov_76.7977_ID_299	960	Plasmid
NODE_151_length_945_cov_21.2874_ID_301	945	Plasmid
NODE_152_length_853_cov_163.481_ID_303	853	Plasmid
NODE_153_length_849_cov_32.5155_ID_305	849	Plasmid
NODE_154_length_824_cov_198.896_ID_307	824	Plasmid
NODE_155_length_810_cov_40.9633_ID_309	810	Plasmid
NODE_156_length_795_cov_94.8792_ID_311	795	Plasmid
NODE_157_length_776_cov_47.2197_ID_313	776	Plasmid
NODE_158_length_728_cov_26.2404_ID_315	728	Plasmid
NODE_159_length_699_cov_56.1138_ID_317	699	Plasmid
NODE_160_length_691_cov_28.7435_ID_319	691	Chromosome
NODE_161_length_641_cov_25.1979_ID_321	641	Plasmid
NODE_162_length_576_cov_59.4271_ID_323	576	Plasmid
NODE_163_length_559_cov_41.5876_ID_325	559	Plasmid
NODE_164_length_530_cov_84.1275_ID_327	530	Chromosome
NODE_165_length_507_cov_28.6366_ID_329	507	Chromosome
NODE_166_length_504_cov_108.732_ID_331	504	Plasmid
NODE_1_length_247125_cov_107.229_ID_1	247125	Chromosome
NODE_2_length_216573_cov_108.139_ID_3	216573	Chromosome
NODE_3_length_142068_cov_120.838_ID_5	142068	Chromosome
NODE_4_length_124397_cov_124.38_ID_7	124397	Chromosome
NODE_5_length_95413_cov_130.788_ID_9	95413	Chromosome
NODE_6_length_93747_cov_96.7073_ID_11	93747	Chromosome
NODE_7_length_87478_cov_96.8268_ID_13	87478	Chromosome
NODE_8_length_73169_cov_118.665_ID_15	73169	Chromosome
NODE_9_length_68130_cov_91.5363_ID_17	68130	Chromosome
NODE_10_length_66713_cov_92.0573_ID_19	66713	Chromosome
NODE_11_length_60248_cov_135.249_ID_21	60248	Chromosome
NODE_12_length_59671_cov_136.706_ID_23	59671	Plasmid
NODE_13_length_59548_cov_94.1167_ID_25	59548	Chromosome
NODE_14_length_57586_cov_100.14_ID_27	57586	Chromosome
NODE_15_length_46866_cov_100.229_ID_29	46866	Chromosome
NODE_16_length_46828_cov_135.428_ID_31	46828	Chromosome
NODE_17_length_46821_cov_104.702_ID_33	46821	Chromosome
NODE_18_length_45924_cov_112.099_ID_35	45924	Chromosome
NODE_19_length_43609_cov_134.129_ID_37	43609	Chromosome
NODE_20_length_43219_cov_113.533_ID_39	43219	Chromosome
NODE_21_length_43185_cov_112.688_ID_41	43185	Chromosome
NODE_22_length_41548_cov_92.3605_ID_43	41548	Chromosome
NODE_23_length_40040_cov_111.426_ID_45	40040	Chromosome
NODE_24_length_33073_cov_125.861_ID_47	33073	Chromosome
NODE_25_length_32628_cov_113.792_ID_49	32628	Chromosome
NODE_26_length_31858_cov_116.459_ID_51	31858	Chromosome
NODE_27_length_31615_cov_113.711_ID_53	31615	Chromosome
NODE_28_length_29921_cov_102.341_ID_55	29921	Chromosome
NODE_29_length_29544_cov_126.936_ID_57	29544	Chromosome
NODE_30_length_25808_cov_129.703_ID_59	25808	Chromosome
NODE_31_length_25517_cov_94.8925_ID_61	25517	Chromosome
NODE_32_length_22915_cov_126.742_ID_63	22915	Plasmid
NODE_33_length_22014_cov_110.619_ID_65	22014	Chromosome
NODE_34_length_16215_cov_117.582_ID_67	16215	Plasmid
NODE_35_length_15912_cov_99.2128_ID_69	15912	Plasmid
NODE_36_length_15910_cov_122.568_ID_71	15910	Chromosome
NODE_37_length_15682_cov_126.557_ID_73	15682	Plasmid
NODE_38_length_15167_cov_158.445_ID_75	15167	Plasmid
NODE_39_length_13519_cov_88.2321_ID_77	13519	Chromosome
NODE_40_length_13162_cov_96.4608_ID_79	13162	Chromosome
NODE_41_length_12971_cov_108.909_ID_81	12971	Chromosome
NODE_42_length_11348_cov_129.93_ID_83	11348	Plasmid
NODE_43_length_11335_cov_92.5182_ID_85	11335	Chromosome
NODE_44_length_10353_cov_97.6141_ID_87	10353	Plasmid
NODE_45_length_10261_cov_114.277_ID_89	10261	Chromosome
NODE_46_length_6952_cov_104.682_ID_91	6952	Chromosome
NODE_47_length_5402_cov_151.06_ID_93	5402	Chromosome
NODE_48_length_5308_cov_123.96_ID_95	5308	Plasmid
NODE_49_length_5058_cov_83.8108_ID_97	5058	Chromosome
NODE_50_length_4679_cov_108.124_ID_99	4679	Chromosome
NODE_51_length_3757_cov_138.4_ID_101	3757	Chromosome
NODE_52_length_2734_cov_118.309_ID_103	2734	Plasmid
NODE_53_length_2677_cov_111.236_ID_105	2677	Plasmid
NODE_54_length_2232_cov_87.6616_ID_107	2232	Chromosome
NODE_55_length_1749_cov_258.308_ID_109	1749	Chromosome
NODE_56_length_1606_cov_93.1176_ID_111	1606	Plasmid
NODE_57_length_1529_cov_1017.68_ID_113	1529	Plasmid
NODE_58_length_1488_cov_907.221_ID_115	1488	Plasmid
NODE_59_length_1455_cov_96.9254_ID_117	1455	Plasmid
NODE_60_length_1370_cov_954.545_ID_119	1370	Chromosome
NODE_61_length_1324_cov_1532.35_ID_121	1324	Plasmid
NODE_62_length_1224_cov_286.502_ID_123	1224	Plasmid
NODE_63_length_1104_cov_305.043_ID_125	1104	Plasmid
NODE_64_length_1062_cov_470.134_ID_127	1062	Plasmid
NODE_65_length_1044_cov_998.545_ID_129	1044	Plasmid
NODE_66_length_972_cov_270.165_ID_131	972	Plasmid
NODE_67_length_918_cov_762.195_ID_133	918	Chromosome
NODE_68_length_915_cov_97.4833_ID_135	915	Plasmid
NODE_69_length_841_cov_340.845_ID_137	841	Plasmid
NODE_70_length_774_cov_220.642_ID_139	774	Chromosome
NODE_71_length_758_cov_231.876_ID_141	758	Plasmid
NODE_72_length_647_cov_139.878_ID_143	647	Plasmid
NODE_73_length_636_cov_651.05_ID_145	636	Plasmid
NODE_74_length_541_cov_93.9592_ID_147	541	Plasmid
NODE_75_length_537_cov_172.208_ID_149	537	Chromosome
NODE_76_length_526_cov_1224.04_ID_151	526	Chromosome
