"Classifier","Strain","Precision_contigs","Precision_bp","species","Replicon"
"PlasmidSPAdes","JJ1886",0.35,0.54,"Escherichia coli","Chr + 5 plasmids"
"PlasmidSPAdes","ECO889",0.84,0.74,"Escherichia coli","Chr + 2 plasmids"
