#SeqID	Length	Prediction
NODE_1_length_1026629_cov_128.369	1026629	Chromosome
NODE_2_length_472950_cov_152.439	472950	Chromosome
NODE_3_length_430601_cov_139.805	430601	Chromosome
NODE_4_length_419158_cov_113.98	419158	Chromosome
NODE_5_length_350505_cov_140.516	350505	Chromosome
NODE_6_length_336769_cov_148.482	336769	Chromosome
NODE_7_length_312945_cov_128.274	312945	Chromosome
NODE_8_length_303344_cov_120.303	303344	Chromosome
NODE_9_length_302489_cov_151.005	302489	Chromosome
NODE_10_length_224301_cov_113.537	224301	Chromosome
NODE_11_length_204943_cov_116.082	204943	Chromosome
NODE_12_length_196529_cov_127.301	196529	Chromosome
NODE_13_length_136376_cov_115.063	136376	Chromosome
NODE_14_length_94266_cov_220.396	94266	Plasmid
NODE_15_length_91275_cov_122.507	91275	Chromosome
NODE_16_length_86667_cov_142.756	86667	Chromosome
NODE_17_length_78570_cov_155.813	78570	Chromosome
NODE_18_length_77734_cov_158.92	77734	Chromosome
NODE_19_length_77315_cov_109.636	77315	Chromosome
NODE_20_length_74234_cov_423.421	74234	Plasmid
NODE_21_length_51153_cov_222.507	51153	Plasmid
NODE_22_length_49291_cov_216.031	49291	Plasmid
NODE_23_length_49172_cov_147.729	49172	Chromosome
NODE_24_length_34649_cov_145.336	34649	Chromosome
NODE_25_length_26446_cov_159.791	26446	Chromosome
NODE_26_length_13063_cov_452.076	13063	Plasmid
NODE_27_length_12475_cov_142.581	12475	Plasmid
NODE_28_length_11765_cov_419.963	11765	Chromosome
NODE_29_length_11079_cov_229.06	11079	Plasmid
NODE_30_length_10524_cov_439.454	10524	Plasmid
NODE_31_length_7997_cov_3209.61	7997	Chromosome
NODE_32_length_6338_cov_345.918	6338	Chromosome
NODE_33_length_5249_cov_232.089	5249	Plasmid
NODE_34_length_4780_cov_148.94	4780	Chromosome
NODE_35_length_4564_cov_413.043	4564	Chromosome
NODE_36_length_4551_cov_151.234	4551	Chromosome
NODE_37_length_4175_cov_53.1131	4175	Plasmid
NODE_38_length_4144_cov_207.67	4144	Chromosome
NODE_39_length_3805_cov_1232.57	3805	Plasmid
NODE_40_length_3605_cov_117.844	3605	Plasmid
NODE_41_length_3581_cov_480.851	3581	Chromosome
NODE_42_length_3001_cov_239.667	3001	Plasmid
NODE_43_length_2925_cov_273.288	2925	Plasmid
NODE_44_length_2401_cov_197.775	2401	Plasmid
NODE_45_length_1956_cov_249.682	1956	Chromosome
NODE_46_length_1911_cov_176.599	1911	Plasmid
NODE_47_length_1892_cov_259.095	1892	Chromosome
NODE_48_length_1641_cov_1209.21	1641	Plasmid
NODE_49_length_1632_cov_891.005	1632	Plasmid
NODE_50_length_1589_cov_1434.12	1589	Chromosome
NODE_51_length_1192_cov_221.567	1192	Plasmid
NODE_52_length_1059_cov_0.619099	1059	Chromosome
NODE_53_length_1037_cov_315.027	1037	Plasmid
NODE_54_length_817_cov_310.28	817	Chromosome
NODE_55_length_807_cov_1361.92	807	Plasmid
NODE_56_length_793_cov_679.45	793	Chromosome
NODE_57_length_782_cov_222.736	782	Chromosome
NODE_58_length_769_cov_1014.94	769	Plasmid
NODE_59_length_768_cov_1214	768	Plasmid
NODE_60_length_713_cov_6575.66	713	Chromosome
NODE_61_length_696_cov_104.32	696	Chromosome
NODE_62_length_648_cov_144.359	648	Chromosome
NODE_63_length_644_cov_113.824	644	Chromosome
NODE_64_length_631_cov_100.056	631	Chromosome
NODE_65_length_627_cov_107.73	627	Plasmid
NODE_66_length_620_cov_155.42	620	Plasmid
NODE_67_length_619_cov_224.341	619	Plasmid
NODE_68_length_597_cov_461.602	597	Plasmid
NODE_69_length_594_cov_261.409	594	Plasmid
NODE_70_length_570_cov_837.853	570	Plasmid
NODE_71_length_554_cov_0.765808	554	Plasmid
NODE_72_length_550_cov_0.650118	550	Chromosome
NODE_73_length_542_cov_0.585542	542	Chromosome
NODE_74_length_531_cov_0.824257	531	Plasmid
NODE_75_length_526_cov_0.746867	526	Chromosome
NODE_76_length_526_cov_0.749373	526	Plasmid
NODE_77_length_525_cov_0.839196	525	Plasmid
NODE_78_length_512_cov_0.815584	512	Chromosome
NODE_79_length_512_cov_0.78961	512	Plasmid
NODE_80_length_503_cov_0.760638	503	Chromosome
NODE_81_length_503_cov_0.678191	503	Chromosome
NODE_82_length_495_cov_0.722826	495	Chromosome
NODE_83_length_491_cov_2.40934	491	Chromosome
NODE_84_length_491_cov_1.42033	491	Chromosome
NODE_85_length_490_cov_0.950413	490	Chromosome
NODE_86_length_481_cov_0.79661	481	Plasmid
NODE_87_length_479_cov_1.6733	479	Plasmid
NODE_88_length_474_cov_0.976945	474	Chromosome
NODE_89_length_474_cov_0.743516	474	Plasmid
NODE_90_length_472_cov_1.68406	472	Chromosome
NODE_91_length_469_cov_0.833333	469	Chromosome
NODE_92_length_466_cov_1.0059	466	Chromosome
NODE_93_length_463_cov_0.922619	463	Plasmid
NODE_94_length_463_cov_0.717262	463	Plasmid
NODE_95_length_462_cov_0.895522	462	Plasmid
NODE_96_length_460_cov_0.693694	460	Plasmid
NODE_97_length_457_cov_0.930303	457	Chromosome
NODE_98_length_456_cov_0.775076	456	Plasmid
NODE_99_length_454_cov_0.996942	454	Chromosome
NODE_100_length_454_cov_1.21101	454	Chromosome
NODE_101_length_454_cov_1.20183	454	Plasmid
NODE_102_length_453_cov_1.11656	453	Plasmid
NODE_103_length_453_cov_1.63804	453	Chromosome
NODE_104_length_451_cov_0.75	451	Chromosome
NODE_105_length_450_cov_0.922601	450	Plasmid
NODE_106_length_449_cov_0.940994	449	Chromosome
NODE_107_length_448_cov_1.05607	448	Chromosome
NODE_108_length_444_cov_0.810726	444	Plasmid
NODE_109_length_442_cov_1.40952	442	Chromosome
NODE_110_length_441_cov_1.02866	441	Chromosome
NODE_111_length_438_cov_1.02894	438	Plasmid
NODE_112_length_438_cov_0.871383	438	Chromosome
NODE_113_length_438_cov_1.21543	438	Chromosome
NODE_114_length_437_cov_0.951613	437	Plasmid
NODE_115_length_435_cov_1.01623	435	Chromosome
NODE_116_length_435_cov_0.909091	435	Plasmid
NODE_117_length_434_cov_1.09772	434	Chromosome
NODE_118_length_434_cov_1.05537	434	Chromosome
NODE_119_length_434_cov_369.16	434	Plasmid
NODE_120_length_433_cov_0.745098	433	Plasmid
NODE_121_length_433_cov_0.781046	433	Plasmid
NODE_122_length_431_cov_1.13487	431	Chromosome
NODE_123_length_431_cov_0.917763	431	Plasmid
NODE_124_length_430_cov_1.13861	430	Plasmid
NODE_125_length_430_cov_0.732673	430	Chromosome
NODE_126_length_428_cov_1.02326	428	Chromosome
NODE_127_length_428_cov_1.05316	428	Chromosome
NODE_128_length_392_cov_210.434	392	Chromosome
NODE_129_length_365_cov_174.655	365	Plasmid
NODE_130_length_361_cov_3442.66	361	Chromosome
NODE_131_length_272_cov_1119.78	272	Chromosome
NODE_132_length_266_cov_794.094	266	Plasmid
NODE_133_length_265_cov_636.029	265	Plasmid
NODE_134_length_260_cov_426.797	260	Plasmid
NODE_135_length_255_cov_231.781	255	Chromosome
NODE_136_length_255_cov_531.117	255	Plasmid
NODE_137_length_254_cov_167.512	254	Chromosome
NODE_138_length_254_cov_4124.54	254	Plasmid
NODE_139_length_243_cov_168.991	243	Plasmid
NODE_140_length_239_cov_95.7321	239	Plasmid
NODE_141_length_239_cov_84.9911	239	Chromosome
NODE_142_length_236_cov_325.67	236	Plasmid
NODE_143_length_228_cov_350.723	228	Plasmid
NODE_144_length_183_cov_623.679	183	Plasmid
NODE_145_length_154_cov_917.889	154	Chromosome
NODE_146_length_149_cov_532.864	149	Chromosome
NODE_147_length_146_cov_183.263	146	Plasmid
NODE_148_length_146_cov_188.368	146	Plasmid
NODE_149_length_145_cov_386.278	145	Chromosome
NODE_150_length_139_cov_365.333	139	Plasmid
NODE_151_length_134_cov_165.286	134	Plasmid
NODE_152_length_131_cov_546.25	131	Plasmid
NODE_153_length_128_cov_144	128	Chromosome
NODE_154_length_128_cov_10533	128	Plasmid
NODE_155_length_128_cov_1224	128	Chromosome
