#SeqID	Length	Prediction
NODE_1_length_371091_cov_11.0621	371091	Chromosome
NODE_2_length_329005_cov_12.8304	329005	Chromosome
NODE_3_length_288391_cov_11.4765	288391	Chromosome
NODE_4_length_270780_cov_12.1265	270780	Chromosome
NODE_5_length_238326_cov_11.3391	238326	Chromosome
NODE_6_length_226133_cov_10.7124	226133	Chromosome
NODE_7_length_203938_cov_12.1251	203938	Chromosome
NODE_8_length_197898_cov_9.45353	197898	Chromosome
NODE_9_length_153741_cov_9.82722	153741	Chromosome
NODE_10_length_139244_cov_11.8266	139244	Chromosome
NODE_11_length_135421_cov_12.4971	135421	Chromosome
NODE_12_length_130685_cov_9.77414	130685	Chromosome
NODE_13_length_129570_cov_12.7314	129570	Chromosome
NODE_14_length_119013_cov_10.4026	119013	Chromosome
NODE_15_length_112219_cov_11.1652	112219	Chromosome
NODE_16_length_110278_cov_10.955	110278	Chromosome
NODE_17_length_105326_cov_11.7503	105326	Chromosome
NODE_18_length_101300_cov_12.7884	101300	Chromosome
NODE_19_length_101235_cov_12.3715	101235	Chromosome
NODE_20_length_99549_cov_13.3695	99549	Chromosome
NODE_21_length_95941_cov_11.8219	95941	Chromosome
NODE_22_length_93032_cov_11.2624	93032	Chromosome
NODE_23_length_90425_cov_11.0627	90425	Chromosome
NODE_24_length_87123_cov_11.2271	87123	Chromosome
NODE_25_length_85980_cov_10.3928	85980	Plasmid
NODE_26_length_84553_cov_10.1855	84553	Chromosome
NODE_27_length_80552_cov_12.6312	80552	Chromosome
NODE_28_length_79480_cov_10.3573	79480	Chromosome
NODE_29_length_75557_cov_9.73672	75557	Chromosome
NODE_30_length_73715_cov_11.6132	73715	Chromosome
NODE_31_length_72928_cov_10.2586	72928	Chromosome
NODE_32_length_72023_cov_9.33816	72023	Chromosome
NODE_33_length_71707_cov_10.0267	71707	Chromosome
NODE_34_length_71651_cov_12.6703	71651	Chromosome
NODE_35_length_69374_cov_12.8681	69374	Chromosome
NODE_36_length_65587_cov_21.8059	65587	Plasmid
NODE_37_length_65255_cov_11.8264	65255	Chromosome
NODE_38_length_56116_cov_11.2319	56116	Chromosome
NODE_39_length_50046_cov_16.056	50046	Plasmid
NODE_40_length_41683_cov_13.0289	41683	Chromosome
NODE_41_length_34935_cov_22.2843	34935	Plasmid
NODE_42_length_34649_cov_13.3368	34649	Chromosome
NODE_43_length_31973_cov_10.872	31973	Chromosome
NODE_44_length_26458_cov_15.3025	26458	Chromosome
NODE_45_length_23996_cov_14.1633	23996	Chromosome
NODE_46_length_23030_cov_8.24739	23030	Plasmid
NODE_47_length_21743_cov_12.0768	21743	Chromosome
NODE_48_length_21666_cov_14.5304	21666	Chromosome
NODE_49_length_20911_cov_11.2301	20911	Chromosome
NODE_50_length_20760_cov_15.4052	20760	Chromosome
NODE_51_length_20172_cov_10.6133	20172	Chromosome
NODE_52_length_19237_cov_14.5539	19237	Chromosome
NODE_53_length_16551_cov_12.8057	16551	Chromosome
NODE_54_length_16132_cov_66.9039	16132	Plasmid
NODE_55_length_15117_cov_29.338	15117	Plasmid
NODE_56_length_14112_cov_10.4411	14112	Chromosome
NODE_57_length_12165_cov_9.28302	12165	Plasmid
NODE_58_length_12130_cov_9.11822	12130	Chromosome
NODE_59_length_11707_cov_12.3618	11707	Plasmid
NODE_60_length_11191_cov_13.0194	11191	Plasmid
NODE_61_length_9793_cov_17.4302	9793	Plasmid
NODE_62_length_7810_cov_19.1863	7810	Plasmid
NODE_63_length_7579_cov_10.0011	7579	Chromosome
NODE_64_length_7568_cov_14.6302	7568	Chromosome
NODE_65_length_6095_cov_21.6553	6095	Plasmid
NODE_66_length_5948_cov_14.5233	5948	Plasmid
NODE_67_length_5933_cov_11.4955	5933	Plasmid
NODE_68_length_4746_cov_13.617	4746	Chromosome
NODE_69_length_4491_cov_19.439	4491	Plasmid
NODE_70_length_4288_cov_75.9877	4288	Plasmid
NODE_71_length_4149_cov_28.9901	4149	Plasmid
NODE_72_length_3733_cov_13.7133	3733	Chromosome
NODE_73_length_3486_cov_110.059	3486	Plasmid
NODE_74_length_3466_cov_100.86	3466	Plasmid
NODE_75_length_3309_cov_12.0999	3309	Plasmid
NODE_76_length_3042_cov_16.9245	3042	Plasmid
NODE_77_length_3032_cov_29.233	3032	Plasmid
NODE_78_length_2905_cov_128.229	2905	Plasmid
NODE_79_length_2058_cov_15.7136	2058	Plasmid
NODE_80_length_2013_cov_42.106	2013	Plasmid
NODE_81_length_1699_cov_16.1287	1699	Plasmid
NODE_82_length_1914_cov_79.4555	1914	Plasmid
NODE_83_length_1842_cov_14.4507	1842	Plasmid
NODE_84_length_1743_cov_12.5142	1743	Chromosome
NODE_85_length_1609_cov_85.3441	1609	Plasmid
NODE_86_length_1444_cov_22.7957	1444	Chromosome
NODE_87_length_1401_cov_93.748	1401	Chromosome
NODE_88_length_1401_cov_94.6538	1401	Plasmid
NODE_89_length_1304_cov_30.9312	1304	Chromosome
NODE_90_length_1303_cov_16.1088	1303	Chromosome
NODE_91_length_1250_cov_17.7605	1250	Plasmid
NODE_92_length_1235_cov_96.2699	1235	Chromosome
NODE_93_length_1202_cov_7.97302	1202	Chromosome
NODE_94_length_1196_cov_212.62	1196	Plasmid
NODE_95_length_1097_cov_38.466	1097	Chromosome
NODE_96_length_1087_cov_128.427	1087	Chromosome
NODE_97_length_1013_cov_32.5293	1013	Plasmid
NODE_98_length_1003_cov_147.046	1003	Chromosome
NODE_99_length_923_cov_22.7864	923	Chromosome
NODE_100_length_899_cov_8.61788	899	Plasmid
NODE_101_length_888_cov_10.1459	888	Chromosome
NODE_102_length_790_cov_17.7979	790	Plasmid
NODE_103_length_713_cov_362.009	713	Chromosome
NODE_104_length_662_cov_22.3514	662	Chromosome
NODE_105_length_600_cov_135.15	600	Chromosome
NODE_106_length_561_cov_0.804147	561	Chromosome
NODE_107_length_549_cov_49.9313	549	Chromosome
NODE_108_length_524_cov_1.22166	524	Chromosome
NODE_109_length_520_cov_113.341	520	Chromosome
NODE_110_length_499_cov_0.682796	499	Plasmid
NODE_111_length_495_cov_1.00815	495	Chromosome
NODE_112_length_495_cov_0.991848	495	Chromosome
NODE_113_length_494_cov_1.13896	494	Chromosome
NODE_114_length_492_cov_0.709589	492	Chromosome
NODE_115_length_491_cov_37.6319	491	Plasmid
NODE_116_length_490_cov_1.4573	490	Chromosome
NODE_117_length_489_cov_0.986188	489	Plasmid
NODE_118_length_485_cov_1.51955	485	Chromosome
NODE_119_length_482_cov_1.03662	482	Chromosome
NODE_120_length_479_cov_0.715909	479	Chromosome
NODE_121_length_476_cov_1.06304	476	Chromosome
NODE_122_length_472_cov_1.53043	472	Chromosome
NODE_123_length_470_cov_0.947522	470	Chromosome
NODE_124_length_462_cov_0.734328	462	Plasmid
NODE_125_length_462_cov_1.06567	462	Chromosome
NODE_126_length_462_cov_0.895522	462	Chromosome
NODE_127_length_461_cov_0.751497	461	Chromosome
NODE_128_length_459_cov_1.11446	459	Chromosome
NODE_129_length_458_cov_1.10272	458	Chromosome
NODE_130_length_458_cov_0.836858	458	Chromosome
NODE_131_length_457_cov_0.733333	457	Plasmid
NODE_132_length_457_cov_27.303	457	Chromosome
NODE_133_length_455_cov_0.932927	455	Chromosome
NODE_134_length_455_cov_0.917683	455	Chromosome
NODE_135_length_454_cov_0.957187	454	Plasmid
NODE_136_length_452_cov_1	452	Chromosome
NODE_137_length_452_cov_1	452	Chromosome
NODE_138_length_452_cov_0.898462	452	Chromosome
NODE_139_length_451_cov_0.904321	451	Chromosome
NODE_140_length_450_cov_1.04954	450	Chromosome
NODE_141_length_450_cov_0.888545	450	Chromosome
NODE_142_length_450_cov_1.11455	450	Chromosome
NODE_143_length_450_cov_25.1084	450	Plasmid
NODE_144_length_449_cov_1.07453	449	Chromosome
NODE_145_length_449_cov_1.30745	449	Chromosome
NODE_146_length_448_cov_0.76324	448	Chromosome
NODE_147_length_448_cov_1.09034	448	Plasmid
NODE_148_length_448_cov_0.996885	448	Plasmid
NODE_149_length_448_cov_0.884735	448	Chromosome
NODE_150_length_447_cov_1.2	447	Chromosome
NODE_151_length_447_cov_57.6906	447	Plasmid
NODE_152_length_446_cov_1.06897	446	Chromosome
NODE_153_length_445_cov_1.10692	445	Chromosome
NODE_154_length_445_cov_0.946541	445	Chromosome
NODE_155_length_445_cov_0.761006	445	Chromosome
NODE_156_length_445_cov_0.996855	445	Chromosome
NODE_157_length_444_cov_0.902208	444	Chromosome
NODE_158_length_444_cov_0.974763	444	Chromosome
NODE_159_length_443_cov_1.06646	443	Chromosome
NODE_160_length_443_cov_1.06329	443	Chromosome
NODE_161_length_443_cov_0.993671	443	Chromosome
NODE_162_length_443_cov_0.927215	443	Chromosome
NODE_163_length_443_cov_1.18038	443	Chromosome
NODE_164_length_443_cov_0.879747	443	Chromosome
NODE_165_length_443_cov_0.870253	443	Chromosome
NODE_166_length_443_cov_1.04747	443	Chromosome
NODE_167_length_442_cov_1.13016	442	Plasmid
NODE_168_length_442_cov_1.13968	442	Chromosome
NODE_169_length_442_cov_1.07937	442	Chromosome
NODE_170_length_442_cov_0.987302	442	Chromosome
NODE_171_length_442_cov_0.628571	442	Chromosome
NODE_172_length_441_cov_1.09554	441	Chromosome
NODE_173_length_441_cov_1.06051	441	Chromosome
NODE_174_length_441_cov_0.898089	441	Chromosome
NODE_175_length_441_cov_1.56051	441	Plasmid
NODE_176_length_441_cov_0.901274	441	Plasmid
NODE_177_length_439_cov_1.01282	439	Chromosome
NODE_178_length_439_cov_0.983974	439	Chromosome
NODE_179_length_439_cov_1.00321	439	Plasmid
NODE_180_length_438_cov_1.1865	438	Chromosome
NODE_181_length_438_cov_1.00965	438	Chromosome
NODE_182_length_438_cov_0.868167	438	Chromosome
NODE_183_length_437_cov_1.06129	437	Chromosome
NODE_184_length_437_cov_0.925806	437	Chromosome
NODE_185_length_436_cov_1.16181	436	Chromosome
NODE_186_length_436_cov_1.06472	436	Chromosome
NODE_187_length_436_cov_1.05825	436	Chromosome
NODE_188_length_436_cov_1.02265	436	Plasmid
NODE_189_length_436_cov_1.01294	436	Chromosome
NODE_190_length_436_cov_0.851133	436	Chromosome
NODE_191_length_436_cov_1.1068	436	Chromosome
NODE_192_length_435_cov_1.07468	435	Chromosome
NODE_193_length_435_cov_1.02922	435	Chromosome
NODE_194_length_435_cov_0.899351	435	Chromosome
NODE_195_length_435_cov_0.824675	435	Plasmid
NODE_196_length_435_cov_0.824675	435	Chromosome
NODE_197_length_435_cov_0.957792	435	Chromosome
NODE_198_length_434_cov_1.07492	434	Chromosome
NODE_199_length_434_cov_0.983713	434	Plasmid
NODE_200_length_434_cov_0.960912	434	Chromosome
NODE_201_length_434_cov_0.856678	434	Chromosome
NODE_202_length_434_cov_0.925081	434	Plasmid
NODE_203_length_434_cov_0.859935	434	Chromosome
NODE_204_length_433_cov_1.19935	433	Chromosome
NODE_205_length_433_cov_1.12418	433	Chromosome
NODE_206_length_433_cov_1.10131	433	Chromosome
NODE_207_length_433_cov_0.852941	433	Chromosome
NODE_208_length_433_cov_0.866013	433	Chromosome
NODE_209_length_433_cov_0.875817	433	Chromosome
NODE_210_length_433_cov_1.10784	433	Chromosome
NODE_211_length_433_cov_0.836601	433	Chromosome
NODE_212_length_433_cov_1.11438	433	Chromosome
NODE_213_length_433_cov_0.980392	433	Chromosome
NODE_214_length_432_cov_1.1082	432	Chromosome
NODE_215_length_432_cov_1.09836	432	Chromosome
NODE_216_length_432_cov_0.97377	432	Chromosome
NODE_217_length_432_cov_0.92459	432	Chromosome
NODE_218_length_431_cov_1.04605	431	Chromosome
NODE_219_length_430_cov_1.19802	430	Chromosome
NODE_220_length_430_cov_0.709571	430	Plasmid
NODE_221_length_430_cov_1.60396	430	Chromosome
NODE_222_length_430_cov_1.47525	430	Chromosome
NODE_223_length_430_cov_1.39274	430	Plasmid
NODE_224_length_430_cov_1.0396	430	Chromosome
NODE_225_length_430_cov_0.920792	430	Chromosome
NODE_226_length_429_cov_1.10265	429	Chromosome
NODE_227_length_429_cov_1.0596	429	Chromosome
NODE_228_length_429_cov_1.02649	429	Chromosome
NODE_229_length_429_cov_0.917219	429	Chromosome
NODE_230_length_428_cov_1.06977	428	Chromosome
NODE_231_length_428_cov_0.993355	428	Chromosome
NODE_232_length_428_cov_0.976744	428	Chromosome
NODE_233_length_428_cov_0.986711	428	Plasmid
NODE_234_length_428_cov_1	428	Chromosome
NODE_235_length_427_cov_1.1	427	Chromosome
NODE_236_length_427_cov_1.27333	427	Plasmid
NODE_237_length_427_cov_0.95	427	Chromosome
NODE_238_length_427_cov_1.12333	427	Plasmid
NODE_239_length_427_cov_1.20667	427	Plasmid
NODE_240_length_427_cov_0.833333	427	Chromosome
NODE_241_length_426_cov_0.779264	426	Plasmid
NODE_242_length_426_cov_1.05351	426	Chromosome
NODE_243_length_426_cov_0.698997	426	Plasmid
NODE_244_length_426_cov_1.06689	426	Chromosome
NODE_245_length_426_cov_1.03679	426	Chromosome
NODE_246_length_426_cov_1.01672	426	Chromosome
NODE_247_length_426_cov_1.01672	426	Chromosome
NODE_248_length_426_cov_0.946488	426	Chromosome
NODE_249_length_426_cov_0.916388	426	Chromosome
NODE_250_length_426_cov_1.39465	426	Chromosome
NODE_251_length_425_cov_1.15436	425	Plasmid
NODE_252_length_425_cov_1.11074	425	Chromosome
NODE_253_length_425_cov_0.969799	425	Chromosome
NODE_254_length_425_cov_1.2047	425	Chromosome
NODE_255_length_425_cov_0.899329	425	Plasmid
NODE_256_length_424_cov_1.22896	424	Chromosome
NODE_257_length_424_cov_0.720539	424	Chromosome
NODE_258_length_424_cov_1.02357	424	Chromosome
NODE_259_length_424_cov_0.915825	424	Chromosome
NODE_260_length_424_cov_0.845118	424	Chromosome
NODE_261_length_424_cov_0.996633	424	Chromosome
NODE_262_length_424_cov_0.895623	424	Chromosome
NODE_263_length_424_cov_1.12458	424	Chromosome
NODE_264_length_423_cov_1.20608	423	Plasmid
NODE_265_length_423_cov_1.14865	423	Chromosome
NODE_266_length_423_cov_1.10811	423	Chromosome
NODE_267_length_423_cov_1.05405	423	Chromosome
NODE_268_length_423_cov_0.97973	423	Chromosome
NODE_269_length_423_cov_0.902027	423	Chromosome
NODE_270_length_422_cov_1.02712	422	Chromosome
NODE_271_length_422_cov_0.969492	422	Plasmid
NODE_272_length_422_cov_1.01695	422	Chromosome
NODE_273_length_421_cov_1.2551	421	Chromosome
NODE_274_length_421_cov_0.836735	421	Chromosome
NODE_275_length_421_cov_1.15986	421	Chromosome
NODE_276_length_421_cov_1.14966	421	Chromosome
NODE_277_length_421_cov_1.06122	421	Chromosome
NODE_278_length_421_cov_0.993197	421	Chromosome
NODE_279_length_421_cov_0.823129	421	Chromosome
NODE_280_length_420_cov_0.832765	420	Chromosome
NODE_281_length_420_cov_1.02389	420	Chromosome
NODE_282_length_420_cov_1.03413	420	Chromosome
NODE_283_length_420_cov_0.802048	420	Chromosome
NODE_284_length_420_cov_1.3413	420	Plasmid
NODE_285_length_420_cov_0.931741	420	Chromosome
NODE_286_length_420_cov_0.914676	420	Chromosome
NODE_287_length_420_cov_1.19113	420	Chromosome
NODE_288_length_420_cov_1.56655	420	Chromosome
NODE_289_length_420_cov_103.84	420	Chromosome
NODE_290_length_419_cov_0.842466	419	Chromosome
NODE_291_length_419_cov_0.832192	419	Chromosome
NODE_292_length_419_cov_0.842466	419	Chromosome
NODE_293_length_419_cov_1.2637	419	Chromosome
NODE_294_length_419_cov_1.11986	419	Chromosome
NODE_295_length_418_cov_0.934708	418	Plasmid
NODE_296_length_417_cov_0.844828	417	Plasmid
NODE_297_length_417_cov_0.848276	417	Chromosome
NODE_298_length_417_cov_1.16552	417	Chromosome
NODE_299_length_417_cov_1.0069	417	Chromosome
NODE_300_length_417_cov_1.02414	417	Chromosome
NODE_301_length_417_cov_0.817241	417	Chromosome
NODE_302_length_417_cov_0.924138	417	Chromosome
NODE_303_length_416_cov_0.851211	416	Chromosome
NODE_304_length_416_cov_0.851211	416	Chromosome
NODE_305_length_416_cov_1.24913	416	Plasmid
NODE_306_length_416_cov_1.03806	416	Chromosome
NODE_307_length_416_cov_0.844291	416	Chromosome
NODE_308_length_416_cov_0.861592	416	Chromosome
NODE_309_length_416_cov_1.13495	416	Chromosome
NODE_310_length_416_cov_1.35986	416	Chromosome
NODE_311_length_415_cov_0.854167	415	Chromosome
NODE_312_length_415_cov_1.10417	415	Chromosome
NODE_313_length_415_cov_1.04167	415	Chromosome
NODE_314_length_415_cov_0.951389	415	Chromosome
NODE_315_length_414_cov_0.857143	414	Chromosome
NODE_316_length_414_cov_0.829268	414	Chromosome
NODE_317_length_414_cov_1.27178	414	Chromosome
NODE_318_length_414_cov_1.21603	414	Chromosome
NODE_319_length_414_cov_1.06969	414	Chromosome
NODE_320_length_414_cov_0.850174	414	Chromosome
NODE_321_length_413_cov_0.846154	413	Chromosome
NODE_322_length_413_cov_1.23776	413	Chromosome
NODE_323_length_413_cov_1.05594	413	Chromosome
NODE_324_length_413_cov_0.979021	413	Chromosome
NODE_325_length_413_cov_1.20979	413	Chromosome
NODE_326_length_413_cov_0.940559	413	Chromosome
NODE_327_length_413_cov_1.17483	413	Chromosome
NODE_328_length_412_cov_0.845614	412	Chromosome
NODE_329_length_412_cov_0.859649	412	Chromosome
NODE_330_length_412_cov_1.26316	412	Chromosome
NODE_331_length_412_cov_1.23509	412	Chromosome
NODE_332_length_412_cov_1.19298	412	Chromosome
NODE_333_length_412_cov_0.870175	412	Chromosome
NODE_334_length_412_cov_1.02105	412	Chromosome
NODE_335_length_412_cov_1.32632	412	Chromosome
NODE_336_length_412_cov_0.978947	412	Chromosome
NODE_337_length_412_cov_0.901754	412	Chromosome
NODE_338_length_412_cov_0.954386	412	Chromosome
NODE_339_length_412_cov_0.884211	412	Chromosome
NODE_340_length_411_cov_1.23239	411	Chromosome
NODE_341_length_411_cov_1.20423	411	Chromosome
NODE_342_length_411_cov_1.14789	411	Chromosome
NODE_343_length_411_cov_1.1338	411	Chromosome
NODE_344_length_411_cov_1.01761	411	Chromosome
NODE_345_length_411_cov_1.07394	411	Chromosome
NODE_346_length_411_cov_1.05282	411	Chromosome
NODE_347_length_411_cov_0.919014	411	Chromosome
NODE_348_length_411_cov_0.926056	411	Chromosome
NODE_349_length_411_cov_0.859155	411	Plasmid
NODE_350_length_411_cov_0.901408	411	Chromosome
NODE_351_length_411_cov_0.866197	411	Chromosome
NODE_352_length_411_cov_0.883803	411	Chromosome
NODE_353_length_410_cov_0.862191	410	Chromosome
NODE_354_length_410_cov_0.840989	410	Plasmid
NODE_355_length_410_cov_1.15548	410	Plasmid
NODE_356_length_410_cov_1.0212	410	Chromosome
NODE_357_length_410_cov_1.07774	410	Plasmid
NODE_358_length_410_cov_1.06007	410	Chromosome
NODE_359_length_410_cov_1.0106	410	Chromosome
NODE_360_length_410_cov_0.992933	410	Chromosome
NODE_361_length_410_cov_0.982332	410	Plasmid
NODE_362_length_410_cov_0.908127	410	Chromosome
NODE_363_length_410_cov_0.893993	410	Chromosome
NODE_364_length_409_cov_0.87234	409	Chromosome
NODE_365_length_409_cov_0.87234	409	Chromosome
NODE_366_length_409_cov_0.829787	409	Chromosome
NODE_367_length_409_cov_0.833333	409	Chromosome
NODE_368_length_409_cov_1.12057	409	Chromosome
NODE_369_length_409_cov_1.07447	409	Plasmid
NODE_370_length_409_cov_1.2766	409	Chromosome
NODE_371_length_409_cov_0.929078	409	Plasmid
NODE_372_length_408_cov_1.2847	408	Chromosome
NODE_373_length_408_cov_0.836299	408	Chromosome
NODE_374_length_408_cov_1.25979	408	Chromosome
NODE_375_length_408_cov_1.29181	408	Chromosome
NODE_376_length_408_cov_1.18505	408	Chromosome
NODE_377_length_408_cov_1.16014	408	Chromosome
NODE_378_length_408_cov_0.66548	408	Plasmid
NODE_379_length_408_cov_1.2669	408	Chromosome
NODE_380_length_408_cov_1.39146	408	Chromosome
NODE_381_length_408_cov_0.97153	408	Chromosome
NODE_382_length_408_cov_0.985765	408	Chromosome
NODE_383_length_408_cov_0.960854	408	Chromosome
NODE_384_length_408_cov_0.982206	408	Chromosome
NODE_385_length_408_cov_0.985765	408	Plasmid
NODE_386_length_407_cov_0.928571	407	Chromosome
NODE_387_length_407_cov_1.33571	407	Chromosome
NODE_388_length_407_cov_0.875	407	Chromosome
NODE_389_length_406_cov_0.88172	406	Plasmid
NODE_390_length_406_cov_1.29391	406	Chromosome
NODE_391_length_406_cov_0.83871	406	Chromosome
NODE_392_length_406_cov_0.673835	406	Chromosome
NODE_393_length_406_cov_1.17204	406	Plasmid
NODE_394_length_406_cov_0.663082	406	Plasmid
NODE_395_length_406_cov_0.9319	406	Chromosome
NODE_396_length_405_cov_0.784173	405	Chromosome
NODE_397_length_405_cov_1.05755	405	Chromosome
NODE_398_length_405_cov_1.1259	405	Chromosome
NODE_399_length_405_cov_1	405	Chromosome
NODE_400_length_405_cov_1.29137	405	Plasmid
NODE_401_length_404_cov_1.31769	404	Chromosome
NODE_402_length_404_cov_1.20578	404	Chromosome
NODE_403_length_404_cov_1.0361	404	Chromosome
NODE_404_length_404_cov_1.12996	404	Chromosome
NODE_405_length_404_cov_1.17329	404	Chromosome
NODE_406_length_404_cov_1.41516	404	Chromosome
NODE_407_length_404_cov_0.938628	404	Chromosome
NODE_408_length_404_cov_1.00361	404	Plasmid
NODE_409_length_404_cov_1.01083	404	Plasmid
NODE_410_length_404_cov_0.862816	404	Chromosome
NODE_411_length_404_cov_16.4693	404	Plasmid
NODE_412_length_403_cov_0.891304	403	Chromosome
NODE_413_length_403_cov_1.13043	403	Chromosome
NODE_414_length_403_cov_1.17391	403	Chromosome
NODE_415_length_403_cov_0.804348	403	Chromosome
NODE_416_length_402_cov_0.821818	402	Chromosome
NODE_417_length_402_cov_1.18545	402	Chromosome
NODE_418_length_402_cov_1.10909	402	Chromosome
NODE_419_length_402_cov_0.854545	402	Chromosome
NODE_420_length_402_cov_0.923636	402	Chromosome
NODE_421_length_401_cov_0.89781	401	Chromosome
NODE_422_length_401_cov_0.89781	401	Chromosome
NODE_423_length_401_cov_0.89781	401	Chromosome
NODE_424_length_401_cov_0.89781	401	Chromosome
NODE_425_length_401_cov_0.89781	401	Chromosome
NODE_426_length_401_cov_0.89781	401	Chromosome
NODE_427_length_401_cov_0.89781	401	Chromosome
NODE_428_length_401_cov_0.89781	401	Chromosome
NODE_429_length_401_cov_0.89781	401	Chromosome
NODE_430_length_401_cov_0.89781	401	Chromosome
NODE_431_length_401_cov_0.89781	401	Plasmid
NODE_432_length_401_cov_0.89781	401	Chromosome
NODE_433_length_401_cov_0.89781	401	Plasmid
NODE_434_length_401_cov_0.89781	401	Chromosome
NODE_435_length_401_cov_0.89781	401	Chromosome
NODE_436_length_401_cov_0.89781	401	Chromosome
NODE_437_length_401_cov_1.24818	401	Chromosome
NODE_438_length_401_cov_1.05474	401	Chromosome
NODE_439_length_401_cov_1.09854	401	Plasmid
NODE_440_length_401_cov_1.0365	401	Chromosome
NODE_441_length_401_cov_0.854015	401	Plasmid
NODE_442_length_400_cov_0.897436	400	Chromosome
NODE_443_length_400_cov_0.897436	400	Chromosome
NODE_444_length_400_cov_0.901099	400	Chromosome
NODE_445_length_400_cov_0.901099	400	Chromosome
NODE_446_length_400_cov_0.901099	400	Chromosome
NODE_447_length_400_cov_0.897436	400	Chromosome
NODE_448_length_400_cov_0.901099	400	Chromosome
NODE_449_length_400_cov_0.901099	400	Chromosome
NODE_450_length_400_cov_0.901099	400	Chromosome
NODE_451_length_400_cov_1.31136	400	Chromosome
NODE_452_length_400_cov_0.901099	400	Chromosome
NODE_453_length_400_cov_0.897436	400	Chromosome
NODE_454_length_400_cov_0.901099	400	Chromosome
NODE_455_length_400_cov_0.897436	400	Chromosome
NODE_456_length_400_cov_0.897436	400	Plasmid
NODE_457_length_400_cov_0.897436	400	Chromosome
NODE_458_length_400_cov_0.901099	400	Chromosome
NODE_459_length_400_cov_0.897436	400	Chromosome
NODE_460_length_400_cov_0.901099	400	Plasmid
NODE_461_length_400_cov_0.901099	400	Chromosome
NODE_462_length_400_cov_0.901099	400	Chromosome
NODE_463_length_400_cov_0.901099	400	Plasmid
NODE_464_length_400_cov_0.901099	400	Plasmid
NODE_465_length_400_cov_0.901099	400	Chromosome
NODE_466_length_400_cov_0.901099	400	Plasmid
NODE_467_length_400_cov_0.901099	400	Chromosome
NODE_468_length_400_cov_0.901099	400	Chromosome
NODE_469_length_400_cov_1.17216	400	Chromosome
NODE_470_length_400_cov_1.12821	400	Chromosome
NODE_471_length_400_cov_1.07326	400	Chromosome
NODE_472_length_399_cov_0.904412	399	Chromosome
NODE_473_length_399_cov_0.904412	399	Chromosome
NODE_474_length_399_cov_0.900735	399	Chromosome
NODE_475_length_399_cov_0.904412	399	Chromosome
NODE_476_length_399_cov_0.904412	399	Chromosome
NODE_477_length_399_cov_0.900735	399	Chromosome
NODE_478_length_399_cov_0.900735	399	Chromosome
NODE_479_length_399_cov_0.897059	399	Chromosome
NODE_480_length_399_cov_0.900735	399	Chromosome
NODE_481_length_399_cov_0.900735	399	Chromosome
NODE_482_length_399_cov_0.904412	399	Chromosome
NODE_483_length_399_cov_0.904412	399	Chromosome
NODE_484_length_399_cov_0.904412	399	Chromosome
NODE_485_length_399_cov_0.904412	399	Chromosome
NODE_486_length_399_cov_0.904412	399	Chromosome
NODE_487_length_399_cov_0.904412	399	Plasmid
NODE_488_length_399_cov_0.904412	399	Chromosome
NODE_489_length_399_cov_0.904412	399	Chromosome
NODE_490_length_399_cov_0.904412	399	Chromosome
NODE_491_length_399_cov_0.897059	399	Chromosome
NODE_492_length_399_cov_0.904412	399	Chromosome
NODE_493_length_399_cov_0.904412	399	Plasmid
NODE_494_length_399_cov_0.904412	399	Chromosome
NODE_495_length_399_cov_0.900735	399	Chromosome
NODE_496_length_399_cov_0.904412	399	Chromosome
NODE_497_length_399_cov_1.27574	399	Chromosome
NODE_498_length_399_cov_1.30515	399	Chromosome
NODE_499_length_399_cov_1.19485	399	Plasmid
NODE_500_length_399_cov_0.900735	399	Chromosome
NODE_501_length_398_cov_0.907749	398	Plasmid
NODE_502_length_398_cov_0.907749	398	Chromosome
NODE_503_length_398_cov_0.896679	398	Chromosome
NODE_504_length_398_cov_0.907749	398	Plasmid
NODE_505_length_398_cov_0.907749	398	Chromosome
NODE_506_length_398_cov_0.896679	398	Chromosome
NODE_507_length_398_cov_0.907749	398	Chromosome
NODE_508_length_398_cov_1.35424	398	Chromosome
NODE_509_length_398_cov_0.896679	398	Chromosome
NODE_510_length_398_cov_0.907749	398	Chromosome
NODE_511_length_398_cov_0.907749	398	Chromosome
NODE_512_length_398_cov_0.904059	398	Plasmid
NODE_513_length_398_cov_0.907749	398	Chromosome
NODE_514_length_398_cov_1.36162	398	Chromosome
NODE_515_length_398_cov_0.907749	398	Chromosome
NODE_516_length_398_cov_0.904059	398	Chromosome
NODE_517_length_398_cov_0.896679	398	Chromosome
NODE_518_length_398_cov_0.900369	398	Chromosome
NODE_519_length_398_cov_1.36162	398	Chromosome
NODE_520_length_398_cov_0.896679	398	Chromosome
NODE_521_length_398_cov_0.907749	398	Chromosome
NODE_522_length_398_cov_0.907749	398	Chromosome
NODE_523_length_398_cov_0.907749	398	Chromosome
NODE_524_length_398_cov_1.30258	398	Chromosome
NODE_525_length_398_cov_1.26568	398	Plasmid
NODE_526_length_398_cov_1.27306	398	Chromosome
NODE_527_length_398_cov_1.22878	398	Chromosome
NODE_528_length_398_cov_0.656827	398	Plasmid
NODE_529_length_398_cov_1.34317	398	Chromosome
NODE_530_length_398_cov_1.13653	398	Plasmid
NODE_531_length_397_cov_0.911111	397	Chromosome
NODE_532_length_397_cov_0.911111	397	Chromosome
NODE_533_length_397_cov_0.911111	397	Chromosome
NODE_534_length_397_cov_0.911111	397	Chromosome
NODE_535_length_397_cov_0.903704	397	Chromosome
NODE_536_length_397_cov_0.896296	397	Chromosome
NODE_537_length_397_cov_0.903704	397	Chromosome
NODE_538_length_397_cov_0.911111	397	Chromosome
NODE_539_length_397_cov_0.907407	397	Chromosome
NODE_540_length_397_cov_0.911111	397	Chromosome
NODE_541_length_397_cov_0.911111	397	Chromosome
NODE_542_length_397_cov_0.9	397	Plasmid
NODE_543_length_397_cov_0.9	397	Chromosome
NODE_544_length_397_cov_0.911111	397	Chromosome
NODE_545_length_397_cov_0.911111	397	Chromosome
NODE_546_length_397_cov_0.907407	397	Chromosome
NODE_547_length_397_cov_0.903704	397	Chromosome
NODE_548_length_397_cov_0.903704	397	Chromosome
NODE_549_length_397_cov_0.903704	397	Chromosome
NODE_550_length_397_cov_0.896296	397	Plasmid
NODE_551_length_397_cov_0.911111	397	Chromosome
NODE_552_length_397_cov_0.9	397	Chromosome
NODE_553_length_397_cov_0.888889	397	Chromosome
NODE_554_length_397_cov_0.911111	397	Chromosome
NODE_555_length_397_cov_0.9	397	Chromosome
NODE_556_length_397_cov_0.911111	397	Chromosome
NODE_557_length_397_cov_0.911111	397	Chromosome
NODE_558_length_397_cov_0.911111	397	Chromosome
NODE_559_length_397_cov_0.903704	397	Chromosome
NODE_560_length_397_cov_0.903704	397	Chromosome
NODE_561_length_397_cov_0.888889	397	Chromosome
NODE_562_length_397_cov_1.31852	397	Chromosome
NODE_563_length_397_cov_1.14444	397	Plasmid
NODE_564_length_397_cov_1.27778	397	Chromosome
NODE_565_length_397_cov_1.06667	397	Plasmid
NODE_566_length_397_cov_0.922222	397	Plasmid
NODE_567_length_396_cov_0.899628	396	Chromosome
NODE_568_length_396_cov_0.914498	396	Chromosome
NODE_569_length_396_cov_0.914498	396	Chromosome
NODE_570_length_396_cov_0.914498	396	Chromosome
NODE_571_length_396_cov_0.914498	396	Chromosome
NODE_572_length_396_cov_0.907063	396	Chromosome
NODE_573_length_396_cov_0.910781	396	Chromosome
NODE_574_length_396_cov_0.910781	396	Plasmid
NODE_575_length_396_cov_0.914498	396	Chromosome
NODE_576_length_396_cov_0.907063	396	Chromosome
NODE_577_length_396_cov_0.914498	396	Plasmid
NODE_578_length_396_cov_0.910781	396	Chromosome
NODE_579_length_396_cov_0.914498	396	Plasmid
NODE_580_length_396_cov_0.914498	396	Chromosome
NODE_581_length_396_cov_0.914498	396	Chromosome
NODE_582_length_396_cov_0.910781	396	Chromosome
NODE_583_length_396_cov_0.907063	396	Chromosome
NODE_584_length_396_cov_0.914498	396	Chromosome
NODE_585_length_396_cov_0.907063	396	Chromosome
NODE_586_length_396_cov_0.907063	396	Chromosome
NODE_587_length_396_cov_0.914498	396	Chromosome
NODE_588_length_396_cov_0.910781	396	Chromosome
NODE_589_length_396_cov_0.899628	396	Chromosome
NODE_590_length_396_cov_0.914498	396	Chromosome
NODE_591_length_396_cov_0.895911	396	Chromosome
NODE_592_length_396_cov_0.914498	396	Chromosome
NODE_593_length_396_cov_0.914498	396	Plasmid
NODE_594_length_396_cov_0.910781	396	Chromosome
NODE_595_length_396_cov_0.899628	396	Chromosome
NODE_596_length_396_cov_1.35688	396	Chromosome
NODE_597_length_396_cov_0.758364	396	Chromosome
NODE_598_length_396_cov_1.15985	396	Plasmid
NODE_599_length_396_cov_1.08922	396	Chromosome
NODE_600_length_395_cov_0.914179	395	Chromosome
NODE_601_length_395_cov_0.906716	395	Chromosome
NODE_602_length_395_cov_0.91791	395	Chromosome
NODE_603_length_395_cov_0.91791	395	Chromosome
NODE_604_length_395_cov_0.91791	395	Chromosome
NODE_605_length_395_cov_0.895522	395	Chromosome
NODE_606_length_395_cov_0.91791	395	Plasmid
NODE_607_length_395_cov_0.914179	395	Chromosome
NODE_608_length_395_cov_0.91791	395	Chromosome
NODE_609_length_395_cov_0.91791	395	Chromosome
NODE_610_length_395_cov_0.91791	395	Chromosome
NODE_611_length_395_cov_0.902985	395	Chromosome
NODE_612_length_395_cov_0.910448	395	Chromosome
NODE_613_length_395_cov_0.91791	395	Chromosome
NODE_614_length_395_cov_0.91791	395	Chromosome
NODE_615_length_395_cov_0.899254	395	Plasmid
NODE_616_length_395_cov_0.91791	395	Chromosome
NODE_617_length_395_cov_0.91791	395	Chromosome
NODE_618_length_395_cov_0.899254	395	Chromosome
NODE_619_length_395_cov_0.902985	395	Chromosome
NODE_620_length_395_cov_0.914179	395	Chromosome
NODE_621_length_395_cov_0.906716	395	Chromosome
NODE_622_length_395_cov_0.910448	395	Chromosome
NODE_623_length_395_cov_1.3209	395	Chromosome
NODE_624_length_395_cov_1.24627	395	Chromosome
NODE_625_length_395_cov_1.23881	395	Chromosome
NODE_626_length_395_cov_1.21642	395	Chromosome
NODE_627_length_395_cov_1.0709	395	Chromosome
NODE_628_length_395_cov_1.23507	395	Chromosome
NODE_629_length_394_cov_0.898876	394	Chromosome
NODE_630_length_394_cov_0.910112	394	Plasmid
NODE_631_length_394_cov_0.913858	394	Plasmid
NODE_632_length_394_cov_0.921348	394	Chromosome
NODE_633_length_394_cov_0.921348	394	Chromosome
NODE_634_length_394_cov_0.917603	394	Chromosome
NODE_635_length_394_cov_0.921348	394	Chromosome
NODE_636_length_394_cov_0.921348	394	Chromosome
NODE_637_length_394_cov_0.910112	394	Chromosome
NODE_638_length_394_cov_0.921348	394	Chromosome
NODE_639_length_394_cov_0.921348	394	Chromosome
NODE_640_length_394_cov_0.910112	394	Chromosome
NODE_641_length_394_cov_0.895131	394	Chromosome
NODE_642_length_394_cov_0.898876	394	Chromosome
NODE_643_length_394_cov_0.910112	394	Chromosome
NODE_644_length_394_cov_0.910112	394	Chromosome
NODE_645_length_394_cov_0.917603	394	Chromosome
NODE_646_length_394_cov_0.921348	394	Chromosome
NODE_647_length_394_cov_1.37828	394	Chromosome
NODE_648_length_394_cov_0.898876	394	Plasmid
NODE_649_length_394_cov_1.32584	394	Chromosome
NODE_650_length_394_cov_1.12734	394	Chromosome
NODE_651_length_394_cov_1.06742	394	Plasmid
NODE_652_length_394_cov_1.33708	394	Chromosome
NODE_653_length_393_cov_0.921053	393	Chromosome
NODE_654_length_393_cov_0.913534	393	Chromosome
NODE_655_length_393_cov_0.917293	393	Chromosome
NODE_656_length_393_cov_0.921053	393	Plasmid
NODE_657_length_393_cov_0.924812	393	Chromosome
NODE_658_length_393_cov_0.924812	393	Chromosome
NODE_659_length_393_cov_0.924812	393	Chromosome
NODE_660_length_393_cov_0.924812	393	Chromosome
NODE_661_length_393_cov_0.924812	393	Chromosome
NODE_662_length_393_cov_0.894737	393	Chromosome
NODE_663_length_393_cov_0.924812	393	Chromosome
NODE_664_length_393_cov_0.921053	393	Plasmid
NODE_665_length_393_cov_0.913534	393	Chromosome
NODE_666_length_393_cov_0.924812	393	Chromosome
NODE_667_length_393_cov_0.913534	393	Chromosome
NODE_668_length_393_cov_0.924812	393	Chromosome
NODE_669_length_393_cov_0.924812	393	Chromosome
NODE_670_length_393_cov_0.924812	393	Chromosome
NODE_671_length_393_cov_0.924812	393	Chromosome
NODE_672_length_393_cov_0.924812	393	Chromosome
NODE_673_length_393_cov_0.906015	393	Chromosome
NODE_674_length_393_cov_0.913534	393	Chromosome
NODE_675_length_393_cov_1.35714	393	Chromosome
NODE_676_length_393_cov_0.981203	393	Chromosome
NODE_677_length_392_cov_0.89434	392	Chromosome
NODE_678_length_392_cov_0.90566	392	Chromosome
NODE_679_length_392_cov_0.924528	392	Plasmid
NODE_680_length_392_cov_0.909434	392	Plasmid
NODE_681_length_392_cov_0.89434	392	Plasmid
NODE_682_length_392_cov_0.928302	392	Chromosome
NODE_683_length_392_cov_0.928302	392	Chromosome
NODE_684_length_392_cov_0.920755	392	Chromosome
NODE_685_length_392_cov_0.90566	392	Chromosome
NODE_686_length_392_cov_0.924528	392	Chromosome
NODE_687_length_392_cov_0.928302	392	Chromosome
NODE_688_length_392_cov_0.909434	392	Chromosome
NODE_689_length_392_cov_0.928302	392	Chromosome
NODE_690_length_392_cov_0.928302	392	Chromosome
NODE_691_length_392_cov_0.928302	392	Plasmid
NODE_692_length_392_cov_0.928302	392	Chromosome
NODE_693_length_392_cov_0.928302	392	Chromosome
NODE_694_length_392_cov_0.89434	392	Chromosome
NODE_695_length_392_cov_0.89434	392	Plasmid
NODE_696_length_392_cov_0.928302	392	Chromosome
NODE_697_length_392_cov_0.928302	392	Chromosome
NODE_698_length_392_cov_1.19623	392	Chromosome
NODE_699_length_392_cov_1.13962	392	Chromosome
NODE_700_length_391_cov_0.931818	391	Chromosome
NODE_701_length_391_cov_0.931818	391	Chromosome
NODE_702_length_391_cov_0.931818	391	Plasmid
NODE_703_length_391_cov_0.909091	391	Chromosome
NODE_704_length_391_cov_0.931818	391	Chromosome
NODE_705_length_391_cov_0.92803	391	Chromosome
NODE_706_length_391_cov_0.912879	391	Plasmid
NODE_707_length_391_cov_0.931818	391	Chromosome
NODE_708_length_391_cov_0.92803	391	Chromosome
NODE_709_length_391_cov_0.92803	391	Chromosome
NODE_710_length_391_cov_0.924242	391	Chromosome
NODE_711_length_391_cov_0.912879	391	Chromosome
NODE_712_length_391_cov_0.905303	391	Chromosome
NODE_713_length_391_cov_0.912879	391	Chromosome
NODE_714_length_391_cov_0.912879	391	Chromosome
NODE_715_length_391_cov_0.931818	391	Chromosome
NODE_716_length_391_cov_0.920455	391	Chromosome
NODE_717_length_391_cov_0.931818	391	Chromosome
NODE_718_length_391_cov_0.931818	391	Chromosome
NODE_719_length_391_cov_0.848485	391	Plasmid
NODE_720_length_391_cov_0.909091	391	Chromosome
NODE_721_length_391_cov_0.931818	391	Chromosome
NODE_722_length_391_cov_0.931818	391	Chromosome
NODE_723_length_391_cov_0.92803	391	Chromosome
NODE_724_length_391_cov_0.931818	391	Chromosome
NODE_725_length_391_cov_0.810606	391	Chromosome
NODE_726_length_391_cov_1.14015	391	Chromosome
NODE_727_length_391_cov_0.901515	391	Chromosome
NODE_728_length_391_cov_1.01136	391	Plasmid
NODE_729_length_390_cov_0.927757	390	Chromosome
NODE_730_length_390_cov_0.935361	390	Chromosome
NODE_731_length_390_cov_0.920152	390	Chromosome
NODE_732_length_390_cov_0.927757	390	Plasmid
NODE_733_length_390_cov_0.923954	390	Chromosome
NODE_734_length_390_cov_0.927757	390	Chromosome
NODE_735_length_390_cov_0.923954	390	Chromosome
NODE_736_length_390_cov_0.935361	390	Chromosome
NODE_737_length_390_cov_0.935361	390	Chromosome
NODE_738_length_390_cov_0.935361	390	Chromosome
NODE_739_length_390_cov_0.904943	390	Chromosome
NODE_740_length_390_cov_0.920152	390	Chromosome
NODE_741_length_390_cov_0.923954	390	Chromosome
NODE_742_length_390_cov_0.935361	390	Chromosome
NODE_743_length_390_cov_0.920152	390	Chromosome
NODE_744_length_390_cov_0.935361	390	Chromosome
NODE_745_length_390_cov_0.935361	390	Plasmid
NODE_746_length_390_cov_0.91635	390	Chromosome
NODE_747_length_390_cov_0.923954	390	Chromosome
NODE_748_length_390_cov_0.923954	390	Chromosome
NODE_749_length_390_cov_1.23954	390	Chromosome
NODE_750_length_390_cov_1.31559	390	Chromosome
NODE_751_length_390_cov_0.726236	390	Chromosome
NODE_752_length_390_cov_1.25856	390	Chromosome
NODE_753_length_390_cov_0.726236	390	Chromosome
NODE_754_length_390_cov_1.23954	390	Chromosome
NODE_755_length_390_cov_1.08365	390	Plasmid
NODE_756_length_390_cov_1.37262	390	Chromosome
NODE_757_length_390_cov_1.04563	390	Chromosome
NODE_758_length_390_cov_1.31559	390	Chromosome
NODE_759_length_389_cov_0.938931	389	Chromosome
NODE_760_length_389_cov_0.923664	389	Plasmid
NODE_761_length_389_cov_0.919847	389	Chromosome
NODE_762_length_389_cov_0.938931	389	Chromosome
NODE_763_length_389_cov_0.912214	389	Chromosome
NODE_764_length_389_cov_0.938931	389	Plasmid
NODE_765_length_389_cov_0.89313	389	Chromosome
NODE_766_length_389_cov_0.931298	389	Chromosome
NODE_767_length_389_cov_0.931298	389	Plasmid
NODE_768_length_389_cov_0.935115	389	Chromosome
NODE_769_length_389_cov_0.938931	389	Chromosome
NODE_770_length_389_cov_0.938931	389	Chromosome
NODE_771_length_389_cov_0.935115	389	Chromosome
NODE_772_length_389_cov_0.931298	389	Chromosome
NODE_773_length_389_cov_0.931298	389	Chromosome
NODE_774_length_389_cov_0.935115	389	Chromosome
NODE_775_length_389_cov_0.916031	389	Plasmid
NODE_776_length_389_cov_0.938931	389	Chromosome
NODE_777_length_389_cov_0.923664	389	Plasmid
NODE_778_length_389_cov_0.938931	389	Chromosome
NODE_779_length_389_cov_0.938931	389	Plasmid
NODE_780_length_389_cov_0.935115	389	Chromosome
NODE_781_length_389_cov_0.931298	389	Chromosome
NODE_782_length_389_cov_0.916031	389	Chromosome
NODE_783_length_389_cov_1.16412	389	Chromosome
NODE_784_length_389_cov_0.812977	389	Chromosome
NODE_785_length_389_cov_1.03817	389	Chromosome
NODE_786_length_389_cov_1.08015	389	Chromosome
NODE_787_length_389_cov_0.90458	389	Chromosome
NODE_788_length_388_cov_0.923372	388	Chromosome
NODE_789_length_388_cov_0.927203	388	Chromosome
NODE_790_length_388_cov_0.942529	388	Chromosome
NODE_791_length_388_cov_0.938697	388	Chromosome
NODE_792_length_388_cov_0.942529	388	Chromosome
NODE_793_length_388_cov_0.942529	388	Chromosome
NODE_794_length_388_cov_0.942529	388	Chromosome
NODE_795_length_388_cov_0.942529	388	Chromosome
NODE_796_length_388_cov_0.942529	388	Chromosome
NODE_797_length_388_cov_0.91954	388	Chromosome
NODE_798_length_388_cov_0.942529	388	Plasmid
NODE_799_length_388_cov_0.908046	388	Chromosome
NODE_800_length_388_cov_0.942529	388	Chromosome
NODE_801_length_388_cov_0.927203	388	Plasmid
NODE_802_length_388_cov_0.911877	388	Chromosome
NODE_803_length_388_cov_0.934866	388	Chromosome
NODE_804_length_388_cov_0.938697	388	Chromosome
NODE_805_length_388_cov_0.942529	388	Chromosome
NODE_806_length_388_cov_0.942529	388	Plasmid
NODE_807_length_388_cov_0.91954	388	Chromosome
NODE_808_length_388_cov_0.942529	388	Chromosome
NODE_809_length_388_cov_0.931034	388	Chromosome
NODE_810_length_388_cov_0.904215	388	Chromosome
NODE_811_length_388_cov_0.911877	388	Plasmid
NODE_812_length_388_cov_0.89272	388	Chromosome
NODE_813_length_388_cov_0.869732	388	Chromosome
NODE_814_length_388_cov_1.04598	388	Chromosome
NODE_815_length_388_cov_1.2069	388	Chromosome
NODE_816_length_388_cov_1.21456	388	Chromosome
NODE_817_length_387_cov_0.946154	387	Chromosome
NODE_818_length_387_cov_0.930769	387	Chromosome
NODE_819_length_387_cov_0.942308	387	Chromosome
NODE_820_length_387_cov_0.915385	387	Chromosome
NODE_821_length_387_cov_0.923077	387	Plasmid
NODE_822_length_387_cov_0.942308	387	Chromosome
NODE_823_length_387_cov_0.942308	387	Chromosome
NODE_824_length_387_cov_0.938462	387	Chromosome
NODE_825_length_387_cov_0.915385	387	Plasmid
NODE_826_length_387_cov_0.934615	387	Chromosome
NODE_827_length_387_cov_0.946154	387	Chromosome
NODE_828_length_387_cov_0.942308	387	Plasmid
NODE_829_length_387_cov_0.946154	387	Chromosome
NODE_830_length_387_cov_0.946154	387	Chromosome
NODE_831_length_387_cov_0.903846	387	Chromosome
NODE_832_length_387_cov_0.926923	387	Plasmid
NODE_833_length_387_cov_0.926923	387	Chromosome
NODE_834_length_387_cov_0.930769	387	Chromosome
NODE_835_length_387_cov_0.942308	387	Chromosome
NODE_836_length_387_cov_0.946154	387	Chromosome
NODE_837_length_387_cov_1.41538	387	Chromosome
NODE_838_length_387_cov_0.930769	387	Chromosome
NODE_839_length_387_cov_0.923077	387	Chromosome
NODE_840_length_387_cov_1.30385	387	Plasmid
NODE_841_length_387_cov_1.08462	387	Chromosome
NODE_842_length_387_cov_1.00769	387	Chromosome
NODE_843_length_387_cov_1.39231	387	Plasmid
NODE_844_length_386_cov_0.945946	386	Chromosome
NODE_845_length_386_cov_0.949807	386	Chromosome
NODE_846_length_386_cov_0.915058	386	Chromosome
NODE_847_length_386_cov_0.942085	386	Chromosome
NODE_848_length_386_cov_0.945946	386	Chromosome
NODE_849_length_386_cov_0.934363	386	Chromosome
NODE_850_length_386_cov_0.949807	386	Chromosome
NODE_851_length_386_cov_0.942085	386	Chromosome
NODE_852_length_386_cov_0.938224	386	Chromosome
NODE_853_length_386_cov_0.934363	386	Chromosome
NODE_854_length_386_cov_0.934363	386	Chromosome
NODE_855_length_386_cov_0.949807	386	Chromosome
NODE_856_length_386_cov_0.934363	386	Chromosome
NODE_857_length_386_cov_0.92278	386	Chromosome
NODE_858_length_386_cov_0.934363	386	Plasmid
NODE_859_length_386_cov_0.942085	386	Chromosome
NODE_860_length_386_cov_0.949807	386	Chromosome
NODE_861_length_386_cov_0.945946	386	Chromosome
NODE_862_length_386_cov_0.911197	386	Plasmid
NODE_863_length_386_cov_0.934363	386	Chromosome
NODE_864_length_386_cov_0.934363	386	Chromosome
NODE_865_length_386_cov_0.949807	386	Chromosome
NODE_866_length_386_cov_0.915058	386	Chromosome
NODE_867_length_386_cov_1.40154	386	Chromosome
NODE_868_length_386_cov_1.33591	386	Chromosome
NODE_869_length_386_cov_0.907336	386	Plasmid
NODE_870_length_386_cov_0.72973	386	Chromosome
NODE_871_length_385_cov_0.934109	385	Plasmid
NODE_872_length_385_cov_0.953488	385	Chromosome
NODE_873_length_385_cov_0.949612	385	Chromosome
NODE_874_length_385_cov_0.949612	385	Chromosome
NODE_875_length_385_cov_0.953488	385	Chromosome
NODE_876_length_385_cov_0.930233	385	Chromosome
NODE_877_length_385_cov_0.926357	385	Chromosome
NODE_878_length_385_cov_0.918605	385	Chromosome
NODE_879_length_385_cov_0.94186	385	Chromosome
NODE_880_length_385_cov_0.945736	385	Chromosome
NODE_881_length_385_cov_0.934109	385	Chromosome
NODE_882_length_385_cov_0.953488	385	Plasmid
NODE_883_length_385_cov_0.953488	385	Chromosome
NODE_884_length_385_cov_0.953488	385	Chromosome
NODE_885_length_385_cov_0.945736	385	Chromosome
NODE_886_length_385_cov_0.945736	385	Chromosome
NODE_887_length_385_cov_0.949612	385	Plasmid
NODE_888_length_385_cov_0.953488	385	Plasmid
NODE_889_length_385_cov_0.949612	385	Chromosome
NODE_890_length_385_cov_0.906977	385	Chromosome
NODE_891_length_385_cov_0.937984	385	Chromosome
NODE_892_length_385_cov_0.949612	385	Chromosome
NODE_893_length_385_cov_0.937984	385	Plasmid
NODE_894_length_385_cov_0.937984	385	Chromosome
NODE_895_length_385_cov_0.953488	385	Chromosome
NODE_896_length_385_cov_0.949612	385	Chromosome
NODE_897_length_385_cov_0.953488	385	Plasmid
NODE_898_length_385_cov_0.918605	385	Chromosome
NODE_899_length_385_cov_0.949612	385	Chromosome
NODE_900_length_385_cov_0.899225	385	Chromosome
NODE_901_length_385_cov_0.949612	385	Chromosome
NODE_902_length_385_cov_0.953488	385	Chromosome
NODE_903_length_385_cov_1.41473	385	Chromosome
NODE_904_length_385_cov_0.906977	385	Chromosome
NODE_905_length_385_cov_1.32946	385	Chromosome
NODE_906_length_385_cov_1.17054	385	Chromosome
NODE_907_length_385_cov_1.13566	385	Chromosome
NODE_908_length_385_cov_1.22481	385	Chromosome
NODE_909_length_385_cov_0.72093	385	Chromosome
NODE_910_length_385_cov_1.1938	385	Chromosome
NODE_911_length_385_cov_1.02713	385	Chromosome
NODE_912_length_384_cov_0.957198	384	Chromosome
NODE_913_length_384_cov_0.941634	384	Chromosome
NODE_914_length_384_cov_0.941634	384	Plasmid
NODE_915_length_384_cov_0.941634	384	Chromosome
NODE_916_length_384_cov_0.945525	384	Chromosome
NODE_917_length_384_cov_0.949416	384	Chromosome
NODE_918_length_384_cov_0.957198	384	Chromosome
NODE_919_length_384_cov_0.933852	384	Chromosome
NODE_920_length_384_cov_0.957198	384	Chromosome
NODE_921_length_384_cov_0.937743	384	Chromosome
NODE_922_length_384_cov_0.957198	384	Chromosome
NODE_923_length_384_cov_0.922179	384	Chromosome
NODE_924_length_384_cov_0.957198	384	Chromosome
NODE_925_length_384_cov_0.933852	384	Plasmid
NODE_926_length_384_cov_0.957198	384	Chromosome
NODE_927_length_384_cov_1.17899	384	Chromosome
NODE_928_length_383_cov_0.960938	383	Chromosome
NODE_929_length_383_cov_0.953125	383	Chromosome
NODE_930_length_383_cov_0.949219	383	Chromosome
NODE_931_length_383_cov_0.957031	383	Plasmid
NODE_932_length_383_cov_0.945312	383	Chromosome
NODE_933_length_383_cov_0.960938	383	Chromosome
NODE_934_length_383_cov_0.957031	383	Chromosome
NODE_935_length_383_cov_0.894531	383	Chromosome
NODE_936_length_383_cov_0.960938	383	Chromosome
NODE_937_length_383_cov_0.953125	383	Plasmid
NODE_938_length_383_cov_0.949219	383	Chromosome
NODE_939_length_383_cov_0.960938	383	Chromosome
NODE_940_length_383_cov_0.957031	383	Chromosome
NODE_941_length_383_cov_0.902344	383	Chromosome
NODE_942_length_383_cov_0.933594	383	Chromosome
NODE_943_length_383_cov_0.9375	383	Chromosome
NODE_944_length_383_cov_0.945312	383	Chromosome
NODE_945_length_383_cov_0.953125	383	Chromosome
NODE_946_length_383_cov_0.960938	383	Plasmid
NODE_947_length_383_cov_0.933594	383	Plasmid
NODE_948_length_383_cov_0.960938	383	Chromosome
NODE_949_length_383_cov_0.941406	383	Chromosome
NODE_950_length_383_cov_0.921875	383	Chromosome
NODE_951_length_383_cov_1.19531	383	Chromosome
NODE_952_length_383_cov_1.15625	383	Chromosome
NODE_953_length_383_cov_0.863281	383	Chromosome
NODE_954_length_382_cov_0.964706	382	Chromosome
NODE_955_length_382_cov_0.913725	382	Plasmid
NODE_956_length_382_cov_0.964706	382	Chromosome
NODE_957_length_382_cov_0.964706	382	Chromosome
NODE_958_length_382_cov_0.952941	382	Chromosome
NODE_959_length_382_cov_0.94902	382	Chromosome
NODE_960_length_382_cov_0.941176	382	Chromosome
NODE_961_length_382_cov_0.952941	382	Chromosome
NODE_962_length_382_cov_0.937255	382	Chromosome
NODE_963_length_382_cov_0.941176	382	Chromosome
NODE_964_length_382_cov_0.960784	382	Chromosome
NODE_965_length_382_cov_0.964706	382	Chromosome
NODE_966_length_382_cov_0.952941	382	Chromosome
NODE_967_length_382_cov_0.960784	382	Chromosome
NODE_968_length_382_cov_0.929412	382	Chromosome
NODE_969_length_382_cov_0.956863	382	Chromosome
NODE_970_length_382_cov_0.964706	382	Chromosome
NODE_971_length_382_cov_0.964706	382	Chromosome
NODE_972_length_382_cov_0.945098	382	Chromosome
NODE_973_length_382_cov_0.901961	382	Chromosome
NODE_974_length_382_cov_0.898039	382	Chromosome
NODE_975_length_382_cov_1.19608	382	Plasmid
NODE_976_length_382_cov_1.23922	382	Plasmid
NODE_977_length_382_cov_1.02353	382	Chromosome
NODE_978_length_382_cov_1.11373	382	Chromosome
NODE_979_length_381_cov_0.968504	381	Chromosome
NODE_980_length_381_cov_0.96063	381	Chromosome
NODE_981_length_381_cov_0.964567	381	Plasmid
NODE_982_length_381_cov_0.952756	381	Chromosome
NODE_983_length_381_cov_0.952756	381	Chromosome
NODE_984_length_381_cov_0.968504	381	Plasmid
NODE_985_length_381_cov_0.96063	381	Chromosome
NODE_986_length_381_cov_0.968504	381	Chromosome
NODE_987_length_381_cov_0.968504	381	Chromosome
NODE_988_length_381_cov_0.929134	381	Chromosome
NODE_989_length_381_cov_0.968504	381	Chromosome
NODE_990_length_381_cov_0.968504	381	Chromosome
NODE_991_length_381_cov_0.968504	381	Chromosome
NODE_992_length_381_cov_0.956693	381	Chromosome
NODE_993_length_381_cov_0.956693	381	Chromosome
NODE_994_length_381_cov_0.940945	381	Chromosome
NODE_995_length_381_cov_0.952756	381	Chromosome
NODE_996_length_381_cov_0.929134	381	Chromosome
NODE_997_length_381_cov_0.913386	381	Chromosome
NODE_998_length_381_cov_0.913386	381	Plasmid
NODE_999_length_381_cov_0.893701	381	Chromosome
NODE_1000_length_381_cov_1.12598	381	Chromosome
NODE_1001_length_381_cov_1.20079	381	Plasmid
NODE_1002_length_380_cov_0.968379	380	Chromosome
NODE_1003_length_380_cov_0.972332	380	Chromosome
NODE_1004_length_380_cov_0.972332	380	Chromosome
NODE_1005_length_380_cov_0.972332	380	Chromosome
NODE_1006_length_380_cov_0.968379	380	Chromosome
NODE_1007_length_380_cov_0.972332	380	Chromosome
NODE_1008_length_380_cov_0.972332	380	Chromosome
NODE_1009_length_380_cov_0.964427	380	Chromosome
NODE_1010_length_380_cov_0.913043	380	Chromosome
NODE_1011_length_380_cov_0.972332	380	Plasmid
NODE_1012_length_380_cov_0.956522	380	Chromosome
NODE_1013_length_380_cov_0.972332	380	Chromosome
NODE_1014_length_380_cov_0.932806	380	Plasmid
NODE_1015_length_380_cov_0.948617	380	Chromosome
NODE_1016_length_380_cov_0.972332	380	Plasmid
NODE_1017_length_380_cov_0.968379	380	Chromosome
NODE_1018_length_380_cov_0.972332	380	Chromosome
NODE_1019_length_380_cov_0.956522	380	Plasmid
NODE_1020_length_380_cov_0.968379	380	Chromosome
NODE_1021_length_380_cov_0.952569	380	Chromosome
NODE_1022_length_380_cov_0.960474	380	Chromosome
NODE_1023_length_380_cov_0.972332	380	Plasmid
NODE_1024_length_380_cov_0.968379	380	Chromosome
NODE_1025_length_380_cov_0.924901	380	Chromosome
NODE_1026_length_380_cov_0.972332	380	Chromosome
NODE_1027_length_380_cov_1.42688	380	Chromosome
NODE_1028_length_380_cov_1.23715	380	Chromosome
NODE_1029_length_380_cov_1.22134	380	Chromosome
NODE_1030_length_380_cov_0.600791	380	Plasmid
NODE_1031_length_379_cov_0.972222	379	Plasmid
NODE_1032_length_379_cov_0.97619	379	Chromosome
NODE_1033_length_379_cov_0.964286	379	Chromosome
NODE_1034_length_379_cov_0.972222	379	Chromosome
NODE_1035_length_379_cov_0.97619	379	Chromosome
NODE_1036_length_379_cov_0.956349	379	Chromosome
NODE_1037_length_379_cov_0.97619	379	Chromosome
NODE_1038_length_379_cov_0.924603	379	Chromosome
NODE_1039_length_379_cov_0.97619	379	Chromosome
NODE_1040_length_379_cov_0.97619	379	Chromosome
NODE_1041_length_379_cov_0.920635	379	Chromosome
NODE_1042_length_379_cov_0.944444	379	Chromosome
NODE_1043_length_379_cov_0.936508	379	Chromosome
NODE_1044_length_379_cov_0.972222	379	Chromosome
NODE_1045_length_379_cov_0.964286	379	Chromosome
NODE_1046_length_379_cov_0.952381	379	Chromosome
NODE_1047_length_379_cov_0.960317	379	Chromosome
NODE_1048_length_379_cov_0.960317	379	Chromosome
NODE_1049_length_379_cov_0.97619	379	Chromosome
NODE_1050_length_379_cov_0.97619	379	Chromosome
NODE_1051_length_379_cov_0.956349	379	Chromosome
NODE_1052_length_379_cov_0.97619	379	Plasmid
NODE_1053_length_379_cov_0.964286	379	Chromosome
NODE_1054_length_379_cov_0.97619	379	Chromosome
NODE_1055_length_379_cov_0.97619	379	Chromosome
NODE_1056_length_379_cov_0.769841	379	Chromosome
NODE_1057_length_379_cov_1.23016	379	Chromosome
NODE_1058_length_379_cov_1.25	379	Chromosome
NODE_1059_length_379_cov_1.19048	379	Chromosome
NODE_1060_length_378_cov_0.972112	378	Chromosome
NODE_1061_length_378_cov_0.98008	378	Chromosome
NODE_1062_length_378_cov_0.98008	378	Chromosome
NODE_1063_length_378_cov_0.976096	378	Plasmid
NODE_1064_length_378_cov_0.964143	378	Chromosome
NODE_1065_length_378_cov_0.964143	378	Plasmid
NODE_1066_length_378_cov_0.976096	378	Chromosome
NODE_1067_length_378_cov_0.964143	378	Chromosome
NODE_1068_length_378_cov_0.976096	378	Chromosome
NODE_1069_length_378_cov_0.956175	378	Chromosome
NODE_1070_length_378_cov_0.98008	378	Chromosome
NODE_1071_length_378_cov_0.98008	378	Chromosome
NODE_1072_length_378_cov_0.968127	378	Chromosome
NODE_1073_length_378_cov_0.98008	378	Chromosome
NODE_1074_length_378_cov_0.98008	378	Chromosome
NODE_1075_length_378_cov_0.952191	378	Chromosome
NODE_1076_length_378_cov_1.20319	378	Chromosome
NODE_1077_length_378_cov_0.581673	378	Chromosome
NODE_1078_length_378_cov_1.13147	378	Chromosome
NODE_1079_length_333_cov_32.932	333	Chromosome
NODE_1080_length_331_cov_43.7745	331	Plasmid
NODE_1081_length_331_cov_9.44118	331	Plasmid
NODE_1082_length_321_cov_4.95876	321	Chromosome
NODE_1083_length_321_cov_23.5722	321	Chromosome
NODE_1084_length_319_cov_7.09375	319	Chromosome
NODE_1085_length_305_cov_34.5618	305	Plasmid
NODE_1086_length_278_cov_6.2053	278	Chromosome
NODE_1087_length_273_cov_27.863	273	Chromosome
NODE_1088_length_257_cov_47.2692	257	Chromosome
NODE_1089_length_257_cov_64.1923	257	Chromosome
NODE_1090_length_254_cov_11.5433	254	Plasmid
NODE_1091_length_252_cov_7.944	252	Plasmid
NODE_1092_length_252_cov_32.944	252	Plasmid
NODE_1093_length_252_cov_62.968	252	Chromosome
NODE_1094_length_250_cov_54.187	250	Chromosome
NODE_1095_length_233_cov_20.283	233	Plasmid
NODE_1096_length_233_cov_32.8302	233	Plasmid
NODE_1097_length_213_cov_28.4535	213	Plasmid
NODE_1098_length_205_cov_59.4872	205	Plasmid
NODE_1099_length_179_cov_25.2692	179	Chromosome
NODE_1100_length_154_cov_10.8148	154	Chromosome
NODE_1101_length_154_cov_17.3333	154	Chromosome
NODE_1102_length_149_cov_69.5455	149	Plasmid
NODE_1103_length_142_cov_7.8	142	Plasmid
NODE_1104_length_139_cov_20.1667	139	Chromosome
NODE_1105_length_139_cov_7.91667	139	Chromosome
NODE_1106_length_135_cov_11.875	135	Chromosome
NODE_1107_length_135_cov_8.5	135	Chromosome
NODE_1108_length_135_cov_41.75	135	Plasmid
NODE_1109_length_128_cov_12	128	Chromosome
NODE_1110_length_128_cov_841	128	Plasmid
