#SeqID	Length	Prediction
NODE_1_length_275658_cov_12.0136	275658	Chromosome
NODE_2_length_224972_cov_12.3011	224972	Chromosome
NODE_3_length_157591_cov_12.2628	157591	Chromosome
NODE_4_length_151521_cov_12.1714	151521	Chromosome
NODE_5_length_142456_cov_11.4598	142456	Chromosome
NODE_6_length_141040_cov_12.5049	141040	Chromosome
NODE_7_length_140059_cov_12.0642	140059	Chromosome
NODE_8_length_136112_cov_12.2046	136112	Chromosome
NODE_9_length_126390_cov_12.4942	126390	Chromosome
NODE_10_length_115900_cov_11.6622	115900	Chromosome
NODE_11_length_113815_cov_12.3736	113815	Chromosome
NODE_12_length_110113_cov_11.8332	110113	Chromosome
NODE_13_length_108802_cov_11.5744	108802	Chromosome
NODE_14_length_106932_cov_12.3225	106932	Chromosome
NODE_15_length_106768_cov_12.6312	106768	Chromosome
NODE_16_length_100690_cov_13.0175	100690	Chromosome
NODE_17_length_99670_cov_12.7904	99670	Chromosome
NODE_18_length_98158_cov_11.9078	98158	Chromosome
NODE_19_length_96148_cov_11.7549	96148	Chromosome
NODE_20_length_91365_cov_12.1774	91365	Chromosome
NODE_21_length_88472_cov_12.7412	88472	Chromosome
NODE_22_length_88194_cov_12.4295	88194	Chromosome
NODE_23_length_87717_cov_13.0882	87717	Chromosome
NODE_24_length_85713_cov_11.993	85713	Chromosome
NODE_25_length_83015_cov_13.0469	83015	Chromosome
NODE_26_length_81498_cov_12.2558	81498	Chromosome
NODE_27_length_76795_cov_11.6713	76795	Chromosome
NODE_28_length_76397_cov_10.6029	76397	Chromosome
NODE_29_length_71548_cov_12.3734	71548	Chromosome
NODE_30_length_70898_cov_12.371	70898	Chromosome
NODE_31_length_70763_cov_12.5155	70763	Chromosome
NODE_32_length_69270_cov_12.3753	69270	Chromosome
NODE_33_length_68052_cov_12.2222	68052	Chromosome
NODE_34_length_68027_cov_12.6704	68027	Chromosome
NODE_35_length_67714_cov_11.1848	67714	Chromosome
NODE_36_length_66807_cov_11.9738	66807	Chromosome
NODE_37_length_65440_cov_13.7633	65440	Chromosome
NODE_38_length_65142_cov_12.9278	65142	Chromosome
NODE_39_length_61694_cov_11.2784	61694	Chromosome
NODE_40_length_58789_cov_11.9963	58789	Chromosome
NODE_41_length_56337_cov_11.6442	56337	Chromosome
NODE_42_length_56312_cov_12.1195	56312	Chromosome
NODE_43_length_56069_cov_11.0352	56069	Chromosome
NODE_44_length_51706_cov_11.4222	51706	Chromosome
NODE_45_length_50108_cov_12.4231	50108	Chromosome
NODE_46_length_49839_cov_19.152	49839	Plasmid
NODE_47_length_47476_cov_12.2056	47476	Chromosome
NODE_48_length_42436_cov_11.4123	42436	Chromosome
NODE_49_length_38688_cov_12.3151	38688	Chromosome
NODE_50_length_37712_cov_11.8306	37712	Chromosome
NODE_51_length_36822_cov_12.2472	36822	Chromosome
NODE_52_length_36724_cov_11.2732	36724	Chromosome
NODE_53_length_34549_cov_12.9152	34549	Chromosome
NODE_54_length_34214_cov_13.5154	34214	Chromosome
NODE_55_length_33392_cov_12.099	33392	Chromosome
NODE_56_length_31873_cov_12.7567	31873	Chromosome
NODE_57_length_31075_cov_13.0571	31075	Chromosome
NODE_58_length_30230_cov_17.5884	30230	Chromosome
NODE_59_length_27913_cov_11.5255	27913	Plasmid
NODE_60_length_26346_cov_15.0453	26346	Chromosome
NODE_61_length_25511_cov_22.4894	25511	Plasmid
NODE_62_length_24452_cov_13.6958	24452	Plasmid
NODE_63_length_24124_cov_27.8048	24124	Plasmid
NODE_64_length_23896_cov_13.2307	23896	Chromosome
NODE_65_length_23294_cov_11.1764	23294	Chromosome
NODE_66_length_21643_cov_12.0526	21643	Chromosome
NODE_67_length_21376_cov_12.4178	21376	Chromosome
NODE_68_length_20798_cov_18.4989	20798	Plasmid
NODE_69_length_20660_cov_19.0808	20660	Chromosome
NODE_70_length_20301_cov_10.4409	20301	Chromosome
NODE_71_length_20072_cov_12.8782	20072	Chromosome
NODE_72_length_19137_cov_14.4478	19137	Chromosome
NODE_73_length_18488_cov_13.1208	18488	Chromosome
NODE_74_length_17562_cov_10.6349	17562	Chromosome
NODE_75_length_17395_cov_9.32723	17395	Chromosome
NODE_76_length_17210_cov_12.8748	17210	Chromosome
NODE_77_length_17039_cov_15.3682	17039	Plasmid
NODE_78_length_16668_cov_12.8135	16668	Chromosome
NODE_79_length_16663_cov_11.9645	16663	Chromosome
NODE_80_length_16602_cov_10.27	16602	Chromosome
NODE_81_length_16318_cov_12.8253	16318	Chromosome
NODE_82_length_14901_cov_11.6139	14901	Chromosome
NODE_83_length_14110_cov_10.3897	14110	Chromosome
NODE_84_length_12714_cov_30.0231	12714	Plasmid
NODE_85_length_12147_cov_17.2383	12147	Plasmid
NODE_86_length_11811_cov_10.1518	11811	Chromosome
NODE_87_length_11607_cov_12.648	11607	Plasmid
NODE_88_length_11091_cov_14.1221	11091	Plasmid
NODE_89_length_10133_cov_19.9212	10133	Plasmid
NODE_90_length_7784_cov_21.1292	7784	Plasmid
NODE_91_length_7603_cov_20.504	7603	Plasmid
NODE_92_length_7491_cov_20.2083	7491	Plasmid
NODE_93_length_7468_cov_14.9341	7468	Chromosome
NODE_94_length_6585_cov_20.5426	6585	Plasmid
NODE_95_length_5829_cov_13.2491	5829	Plasmid
NODE_96_length_5758_cov_18.6511	5758	Plasmid
NODE_97_length_5598_cov_23.9634	5598	Plasmid
NODE_98_length_5541_cov_21.4369	5541	Plasmid
NODE_99_length_5424_cov_20.5588	5424	Plasmid
NODE_100_length_5317_cov_21.888	5317	Plasmid
NODE_101_length_4926_cov_22.4729	4926	Plasmid
NODE_102_length_4751_cov_23.5424	4751	Chromosome
NODE_103_length_4498_cov_15.9466	4498	Chromosome
NODE_104_length_4475_cov_16.2904	4475	Chromosome
NODE_105_length_4396_cov_16.2704	4396	Chromosome
NODE_106_length_4284_cov_16.2092	4284	Plasmid
NODE_107_length_4217_cov_9.91304	4217	Chromosome
NODE_108_length_4149_cov_36.2913	4149	Plasmid
NODE_109_length_3831_cov_10.4622	3831	Chromosome
NODE_110_length_3769_cov_24.072	3769	Plasmid
NODE_111_length_3633_cov_18.7967	3633	Chromosome
NODE_112_length_3420_cov_13.6222	3420	Plasmid
NODE_113_length_3333_cov_10.4066	3333	Chromosome
NODE_114_length_3209_cov_10.5412	3209	Plasmid
NODE_115_length_2851_cov_107.696	2851	Plasmid
NODE_116_length_2642_cov_19.5981	2642	Plasmid
NODE_117_length_2533_cov_18.4292	2533	Plasmid
NODE_118_length_2452_cov_40.6371	2452	Plasmid
NODE_119_length_2433_cov_27.0216	2433	Plasmid
NODE_120_length_1958_cov_20.3083	1958	Plasmid
NODE_121_length_1899_cov_16.213	1899	Plasmid
NODE_122_length_1811_cov_84.8806	1811	Plasmid
NODE_123_length_1694_cov_32.4187	1694	Chromosome
NODE_124_length_1655_cov_45.5634	1655	Plasmid
NODE_125_length_1641_cov_16.3146	1641	Chromosome
NODE_126_length_1641_cov_16.6381	1641	Plasmid
NODE_127_length_1609_cov_41.2826	1609	Plasmid
NODE_128_length_1539_cov_18.4644	1539	Plasmid
NODE_129_length_1401_cov_95.0514	1401	Plasmid
NODE_130_length_1370_cov_18.1423	1370	Plasmid
NODE_131_length_1344_cov_23.9361	1344	Chromosome
NODE_132_length_1341_cov_19.5593	1341	Plasmid
NODE_133_length_1328_cov_24.2638	1328	Chromosome
NODE_134_length_1276_cov_19.1334	1276	Plasmid
NODE_135_length_1264_cov_0.855939	1264	Chromosome
NODE_136_length_1232_cov_18.69	1232	Plasmid
NODE_137_length_1203_cov_12.968	1203	Chromosome
NODE_138_length_1194_cov_25.6983	1194	Plasmid
NODE_139_length_1192_cov_31.8565	1192	Plasmid
NODE_140_length_1156_cov_18.6015	1156	Plasmid
NODE_141_length_1150_cov_15.9217	1150	Plasmid
NODE_142_length_1141_cov_16.2378	1141	Plasmid
NODE_143_length_1134_cov_19.1769	1134	Plasmid
NODE_144_length_1103_cov_19.8587	1103	Chromosome
NODE_145_length_1097_cov_41.1225	1097	Chromosome
NODE_146_length_1087_cov_114.124	1087	Chromosome
NODE_147_length_1071_cov_24.335	1071	Plasmid
NODE_148_length_1057_cov_35.1296	1057	Chromosome
NODE_149_length_1057_cov_38.8602	1057	Plasmid
NODE_150_length_1028_cov_29.2334	1028	Chromosome
NODE_151_length_1018_cov_35	1018	Chromosome
NODE_152_length_1013_cov_25.5075	1013	Plasmid
NODE_153_length_1003_cov_26.0713	1003	Chromosome
NODE_154_length_964_cov_36.8918	964	Plasmid
NODE_155_length_961_cov_11.4593	961	Plasmid
NODE_156_length_958_cov_13.807	958	Plasmid
NODE_157_length_938_cov_28.5482	938	Chromosome
NODE_158_length_825_cov_15.3997	825	Plasmid
NODE_159_length_823_cov_25.252	823	Chromosome
NODE_160_length_799_cov_10.0956	799	Plasmid
NODE_161_length_775_cov_32.8782	775	Plasmid
NODE_162_length_733_cov_188.037	733	Plasmid
NODE_163_length_720_cov_16.4152	720	Plasmid
NODE_164_length_671_cov_38.0034	671	Chromosome
NODE_165_length_669_cov_18.0743	669	Plasmid
NODE_166_length_622_cov_1.09358	622	Chromosome
NODE_167_length_608_cov_15.5179	608	Plasmid
NODE_168_length_600_cov_28.4168	600	Plasmid
NODE_169_length_600_cov_120.551	600	Chromosome
NODE_170_length_586_cov_0.880157	586	Plasmid
NODE_171_length_580_cov_32.2147	580	Plasmid
NODE_172_length_522_cov_1.04494	522	Chromosome
NODE_173_length_520_cov_59.2596	520	Chromosome
NODE_174_length_511_cov_9.85714	511	Plasmid
NODE_175_length_510_cov_63.6028	510	Plasmid
NODE_176_length_509_cov_0.80787	509	Plasmid
NODE_177_length_505_cov_0.803738	505	Plasmid
NODE_178_length_504_cov_53.445	504	Chromosome
NODE_179_length_492_cov_0.942169	492	Plasmid
NODE_180_length_490_cov_24.6925	490	Plasmid
NODE_181_length_483_cov_25.4138	483	Plasmid
NODE_182_length_478_cov_18.2419	478	Plasmid
NODE_183_length_478_cov_21.7556	478	Chromosome
NODE_184_length_457_cov_21.9211	457	Chromosome
NODE_185_length_448_cov_15.8922	448	Plasmid
NODE_186_length_442_cov_1.72877	442	Chromosome
NODE_187_length_438_cov_1.2133	438	Plasmid
NODE_188_length_438_cov_34.554	438	Chromosome
NODE_189_length_437_cov_156.075	437	Chromosome
NODE_190_length_430_cov_0.827195	430	Chromosome
NODE_191_length_427_cov_0.94	427	Chromosome
NODE_192_length_425_cov_13.4397	425	Plasmid
NODE_193_length_425_cov_15.25	425	Plasmid
NODE_194_length_423_cov_0.861272	423	Chromosome
NODE_195_length_422_cov_33.1217	422	Chromosome
NODE_196_length_418_cov_29.2023	418	Plasmid
NODE_197_length_406_cov_0.823708	406	Plasmid
NODE_198_length_406_cov_0.881459	406	Plasmid
NODE_199_length_403_cov_12.1933	403	Plasmid
NODE_200_length_399_cov_0.748447	399	Plasmid
NODE_201_length_395_cov_18.6792	395	Plasmid
NODE_202_length_392_cov_11.0254	392	Plasmid
NODE_203_length_388_cov_15.2765	388	Plasmid
NODE_204_length_382_cov_0.957377	382	Chromosome
NODE_205_length_380_cov_8.81848	380	Chromosome
NODE_206_length_380_cov_9.57756	380	Chromosome
NODE_207_length_380_cov_37.6073	380	Chromosome
NODE_208_length_377_cov_33.8233	377	Chromosome
NODE_209_length_376_cov_0.973244	376	Plasmid
NODE_210_length_376_cov_0.939799	376	Chromosome
NODE_211_length_375_cov_0.694631	375	Plasmid
NODE_212_length_368_cov_0.879725	368	Plasmid
NODE_213_length_363_cov_1.45105	363	Chromosome
NODE_214_length_362_cov_34.207	362	Plasmid
NODE_215_length_360_cov_15.258	360	Chromosome
NODE_216_length_356_cov_144.76	356	Plasmid
NODE_217_length_355_cov_0.78777	355	Plasmid
NODE_218_length_353_cov_0.971014	353	Plasmid
NODE_219_length_350_cov_1.0696	350	Plasmid
NODE_220_length_348_cov_2.29151	348	Plasmid
NODE_221_length_347_cov_1.08148	347	Chromosome
NODE_222_length_344_cov_1.45318	344	Plasmid
NODE_223_length_343_cov_0.996241	343	Plasmid
NODE_224_length_341_cov_21.197	341	Plasmid
NODE_225_length_339_cov_0.721374	339	Chromosome
NODE_226_length_338_cov_0.636015	338	Chromosome
NODE_227_length_338_cov_0.888889	338	Plasmid
NODE_228_length_337_cov_1.01923	337	Plasmid
NODE_229_length_334_cov_0.824903	334	Chromosome
NODE_230_length_334_cov_1.05837	334	Plasmid
NODE_231_length_333_cov_34.0625	333	Chromosome
NODE_232_length_331_cov_49.0748	331	Chromosome
NODE_233_length_330_cov_18.9565	330	Chromosome
NODE_234_length_329_cov_0.615079	329	Plasmid
NODE_235_length_329_cov_18.5	329	Plasmid
NODE_236_length_329_cov_18.3333	329	Plasmid
NODE_237_length_328_cov_0.776892	328	Chromosome
NODE_238_length_328_cov_0.601594	328	Plasmid
NODE_239_length_328_cov_92.8048	328	Plasmid
NODE_240_length_325_cov_0.959677	325	Plasmid
NODE_241_length_322_cov_62.6571	322	Plasmid
NODE_242_length_321_cov_0.893443	321	Plasmid
NODE_243_length_317_cov_0.6625	317	Plasmid
NODE_244_length_314_cov_0.637131	314	Chromosome
NODE_245_length_312_cov_0.931915	312	Plasmid
NODE_246_length_309_cov_1.18534	309	Plasmid
NODE_247_length_308_cov_0.948052	308	Chromosome
NODE_248_length_308_cov_38.3247	308	Chromosome
NODE_249_length_306_cov_0.969432	306	Chromosome
NODE_250_length_304_cov_16.4626	304	Chromosome
NODE_251_length_302_cov_1.07556	302	Plasmid
NODE_252_length_302_cov_12.4578	302	Plasmid
NODE_253_length_301_cov_17.8616	301	Chromosome
NODE_254_length_300_cov_0.807175	300	Plasmid
NODE_255_length_298_cov_0.950226	298	Chromosome
NODE_256_length_296_cov_0.552511	296	Chromosome
NODE_257_length_295_cov_1.88532	295	Plasmid
NODE_258_length_292_cov_0.925581	292	Chromosome
NODE_259_length_292_cov_0.930233	292	Chromosome
NODE_260_length_291_cov_0.621495	291	Chromosome
NODE_261_length_290_cov_0.605634	290	Plasmid
NODE_262_length_289_cov_0.896226	289	Chromosome
NODE_263_length_289_cov_34.2453	289	Chromosome
NODE_264_length_287_cov_0.680952	287	Plasmid
NODE_265_length_287_cov_0.995238	287	Plasmid
NODE_266_length_285_cov_0.846154	285	Chromosome
NODE_267_length_285_cov_1.04327	285	Chromosome
NODE_268_length_281_cov_1.06373	281	Plasmid
NODE_269_length_280_cov_19.1724	280	Plasmid
NODE_270_length_279_cov_1.0396	279	Chromosome
NODE_271_length_278_cov_0.726368	278	Plasmid
NODE_272_length_277_cov_10.72	277	Plasmid
NODE_273_length_276_cov_0.733668	276	Plasmid
NODE_274_length_276_cov_0.733668	276	Chromosome
NODE_275_length_276_cov_1.0804	276	Chromosome
NODE_276_length_275_cov_22.3687	275	Plasmid
NODE_277_length_274_cov_0.741117	274	Chromosome
NODE_278_length_273_cov_0.744898	273	Plasmid
NODE_279_length_273_cov_0.882653	273	Chromosome
NODE_280_length_272_cov_0.964103	272	Chromosome
NODE_281_length_272_cov_0.748718	272	Chromosome
NODE_282_length_272_cov_0.723077	272	Chromosome
NODE_283_length_271_cov_0.747423	271	Chromosome
NODE_284_length_271_cov_0.752577	271	Plasmid
NODE_285_length_270_cov_0.756477	270	Chromosome
NODE_286_length_270_cov_0.751295	270	Chromosome
NODE_287_length_269_cov_0.760417	269	Chromosome
NODE_288_length_269_cov_0.755208	269	Chromosome
NODE_289_length_267_cov_0.757895	267	Plasmid
NODE_290_length_267_cov_0.768421	267	Chromosome
NODE_291_length_267_cov_0.721053	267	Plasmid
NODE_292_length_266_cov_0.772487	266	Plasmid
NODE_293_length_266_cov_0.772487	266	Chromosome
NODE_294_length_266_cov_0.888889	266	Chromosome
NODE_295_length_265_cov_0.776596	265	Chromosome
NODE_296_length_265_cov_0.760638	265	Plasmid
NODE_297_length_265_cov_0.776596	265	Chromosome
NODE_298_length_265_cov_1.28191	265	Plasmid
NODE_299_length_264_cov_0.780749	264	Plasmid
NODE_300_length_264_cov_0.775401	264	Chromosome
NODE_301_length_263_cov_0.763441	263	Chromosome
NODE_302_length_263_cov_0.784946	263	Plasmid
NODE_303_length_262_cov_0.772973	262	Plasmid
NODE_304_length_262_cov_0.789189	262	Chromosome
NODE_305_length_261_cov_0.793478	261	Plasmid
NODE_306_length_261_cov_0.793478	261	Chromosome
NODE_307_length_261_cov_16.2446	261	Plasmid
NODE_308_length_260_cov_1.19126	260	Plasmid
NODE_309_length_260_cov_0.721311	260	Chromosome
NODE_310_length_260_cov_0.715847	260	Chromosome
NODE_311_length_260_cov_0.994536	260	Chromosome
NODE_312_length_260_cov_13.3169	260	Plasmid
NODE_313_length_259_cov_0.802198	259	Chromosome
NODE_314_length_259_cov_0.78022	259	Chromosome
NODE_315_length_259_cov_0.802198	259	Plasmid
NODE_316_length_259_cov_0.802198	259	Plasmid
NODE_317_length_259_cov_56.5165	259	Plasmid
NODE_318_length_258_cov_0.80663	258	Plasmid
NODE_319_length_258_cov_0.80663	258	Chromosome
NODE_320_length_258_cov_0.80663	258	Plasmid
NODE_321_length_258_cov_0.696133	258	Plasmid
NODE_322_length_258_cov_1.45856	258	Plasmid
NODE_323_length_257_cov_0.805556	257	Chromosome
NODE_324_length_257_cov_0.805556	257	Chromosome
NODE_325_length_257_cov_0.872222	257	Chromosome
NODE_326_length_257_cov_0.927778	257	Plasmid
NODE_327_length_256_cov_0.815642	256	Chromosome
NODE_328_length_256_cov_0.798883	256	Chromosome
NODE_329_length_256_cov_0.815642	256	Plasmid
NODE_330_length_256_cov_0.810056	256	Chromosome
NODE_331_length_256_cov_0.793296	256	Plasmid
NODE_332_length_256_cov_0.715084	256	Plasmid
NODE_333_length_255_cov_0.730337	255	Plasmid
NODE_334_length_255_cov_0.820225	255	Plasmid
NODE_335_length_255_cov_0.820225	255	Plasmid
NODE_336_length_255_cov_0.820225	255	Plasmid
NODE_337_length_255_cov_0.820225	255	Plasmid
NODE_338_length_254_cov_0.824859	254	Plasmid
NODE_339_length_254_cov_0.824859	254	Chromosome
NODE_340_length_254_cov_0.824859	254	Chromosome
NODE_341_length_254_cov_0.824859	254	Chromosome
NODE_342_length_254_cov_1.10734	254	Chromosome
NODE_343_length_254_cov_0.824859	254	Chromosome
NODE_344_length_253_cov_0.829545	253	Chromosome
NODE_345_length_253_cov_0.897727	253	Chromosome
NODE_346_length_252_cov_0.811429	252	Chromosome
NODE_347_length_252_cov_0.834286	252	Chromosome
NODE_348_length_252_cov_0.834286	252	Plasmid
NODE_349_length_252_cov_0.948571	252	Plasmid
NODE_350_length_251_cov_0.83908	251	Plasmid
NODE_351_length_251_cov_0.833333	251	Chromosome
NODE_352_length_251_cov_0.741379	251	Chromosome
NODE_353_length_250_cov_0.843931	250	Chromosome
NODE_354_length_250_cov_0.843931	250	Chromosome
NODE_355_length_250_cov_0.843931	250	Chromosome
NODE_356_length_250_cov_0.676301	250	Plasmid
NODE_357_length_250_cov_1.57803	250	Chromosome
NODE_358_length_249_cov_0.802326	249	Chromosome
NODE_359_length_249_cov_0.848837	249	Chromosome
NODE_360_length_248_cov_0.853801	248	Plasmid
NODE_361_length_248_cov_1.27485	248	Chromosome
NODE_362_length_248_cov_0.795322	248	Chromosome
NODE_363_length_247_cov_0.858824	247	Plasmid
NODE_364_length_247_cov_0.847059	247	Plasmid
NODE_365_length_247_cov_0.858824	247	Chromosome
NODE_366_length_247_cov_0.858824	247	Plasmid
NODE_367_length_247_cov_0.858824	247	Chromosome
NODE_368_length_246_cov_0.863905	246	Plasmid
NODE_369_length_246_cov_0.863905	246	Chromosome
NODE_370_length_246_cov_0.692308	246	Plasmid
NODE_371_length_246_cov_1.3787	246	Chromosome
NODE_372_length_245_cov_0.869048	245	Chromosome
NODE_373_length_245_cov_0.869048	245	Plasmid
NODE_374_length_245_cov_0.869048	245	Chromosome
NODE_375_length_245_cov_0.761905	245	Chromosome
NODE_376_length_245_cov_0.869048	245	Plasmid
NODE_377_length_245_cov_0.678571	245	Plasmid
NODE_378_length_245_cov_0.678571	245	Plasmid
NODE_379_length_245_cov_2.29762	245	Chromosome
NODE_380_length_244_cov_0.874251	244	Chromosome
NODE_381_length_244_cov_0.862275	244	Plasmid
NODE_382_length_244_cov_0.868263	244	Plasmid
NODE_383_length_244_cov_0.868263	244	Plasmid
NODE_384_length_244_cov_0.868263	244	Chromosome
NODE_385_length_244_cov_0.664671	244	Plasmid
NODE_386_length_243_cov_0.873494	243	Chromosome
NODE_387_length_243_cov_0.704819	243	Plasmid
NODE_388_length_243_cov_0.759036	243	Plasmid
NODE_389_length_243_cov_0.686747	243	Plasmid
NODE_390_length_243_cov_0.686747	243	Chromosome
NODE_391_length_243_cov_0.692771	243	Plasmid
NODE_392_length_242_cov_1.73333	242	Chromosome
NODE_393_length_242_cov_0.884848	242	Chromosome
NODE_394_length_242_cov_0.884848	242	Chromosome
NODE_395_length_242_cov_0.884848	242	Chromosome
NODE_396_length_242_cov_1.17576	242	Chromosome
NODE_397_length_241_cov_0.890244	241	Plasmid
NODE_398_length_241_cov_0.890244	241	Plasmid
NODE_399_length_241_cov_0.890244	241	Chromosome
NODE_400_length_241_cov_0.890244	241	Plasmid
NODE_401_length_241_cov_0.853659	241	Plasmid
NODE_402_length_240_cov_0.895706	240	Chromosome
NODE_403_length_240_cov_0.889571	240	Plasmid
NODE_404_length_240_cov_0.717791	240	Chromosome
NODE_405_length_240_cov_29.9325	240	Chromosome
NODE_406_length_240_cov_1.28834	240	Chromosome
NODE_407_length_239_cov_0.660494	239	Chromosome
NODE_408_length_239_cov_24.0926	239	Chromosome
NODE_409_length_238_cov_0.863354	238	Plasmid
NODE_410_length_238_cov_0.906832	238	Chromosome
NODE_411_length_237_cov_0.9125	237	Plasmid
NODE_412_length_237_cov_0.9125	237	Plasmid
NODE_413_length_237_cov_0.9125	237	Chromosome
NODE_414_length_237_cov_0.65	237	Chromosome
NODE_415_length_236_cov_0.91195	236	Chromosome
NODE_416_length_236_cov_0.654088	236	Plasmid
NODE_417_length_236_cov_0.742138	236	Chromosome
NODE_418_length_236_cov_0.735849	236	Plasmid
NODE_419_length_235_cov_0.924051	235	Chromosome
NODE_420_length_235_cov_0.892405	235	Chromosome
NODE_421_length_234_cov_1.38854	234	Plasmid
NODE_422_length_234_cov_0.853503	234	Plasmid
NODE_423_length_234_cov_0.649682	234	Plasmid
NODE_424_length_234_cov_1.20382	234	Plasmid
NODE_425_length_233_cov_0.935897	233	Plasmid
NODE_426_length_233_cov_0.916667	233	Plasmid
NODE_427_length_232_cov_0.883871	232	Chromosome
NODE_428_length_232_cov_0.670968	232	Chromosome
NODE_429_length_232_cov_0.741935	232	Chromosome
NODE_430_length_232_cov_3.05806	232	Chromosome
NODE_431_length_232_cov_0.670968	232	Plasmid
NODE_432_length_231_cov_0.714286	231	Chromosome
NODE_433_length_231_cov_0.948052	231	Chromosome
NODE_434_length_231_cov_0.811688	231	Chromosome
NODE_435_length_231_cov_0.636364	231	Plasmid
NODE_436_length_230_cov_0.941176	230	Plasmid
NODE_437_length_230_cov_0.954248	230	Plasmid
NODE_438_length_230_cov_0.686275	230	Chromosome
NODE_439_length_230_cov_0.751634	230	Plasmid
NODE_440_length_229_cov_0.776316	229	Plasmid
NODE_441_length_229_cov_0.960526	229	Plasmid
NODE_442_length_229_cov_0.710526	229	Chromosome
NODE_443_length_228_cov_0.966887	228	Plasmid
NODE_444_length_228_cov_0.960265	228	Plasmid
NODE_445_length_228_cov_0.807947	228	Plasmid
NODE_446_length_228_cov_0.781457	228	Chromosome
NODE_447_length_228_cov_0.695364	228	Chromosome
NODE_448_length_213_cov_17.7279	213	Plasmid
NODE_449_length_207_cov_15.1769	207	Chromosome
NODE_450_length_201_cov_23.75	201	Plasmid
NODE_451_length_198_cov_7.18182	198	Plasmid
NODE_452_length_197_cov_9.325	197	Plasmid
NODE_453_length_186_cov_6.88991	186	Chromosome
NODE_454_length_181_cov_7.31731	181	Chromosome
NODE_455_length_179_cov_7.41176	179	Chromosome
NODE_456_length_176_cov_45.4343	176	Plasmid
NODE_457_length_175_cov_14.7143	175	Plasmid
NODE_458_length_173_cov_38.4167	173	Chromosome
NODE_459_length_167_cov_8.33333	167	Chromosome
NODE_460_length_165_cov_38	165	Plasmid
NODE_461_length_165_cov_33.8295	165	Plasmid
NODE_462_length_157_cov_45.425	157	Chromosome
NODE_463_length_157_cov_80.525	157	Chromosome
NODE_464_length_154_cov_15.2078	154	Plasmid
NODE_465_length_154_cov_25.4935	154	Plasmid
NODE_466_length_153_cov_32.8289	153	Chromosome
NODE_467_length_153_cov_9.85526	153	Chromosome
NODE_468_length_152_cov_19.9333	152	Plasmid
NODE_469_length_152_cov_3.46667	152	Chromosome
NODE_470_length_151_cov_21.0405	151	Chromosome
NODE_471_length_151_cov_8.89189	151	Chromosome
NODE_472_length_143_cov_104.318	143	Plasmid
NODE_473_length_133_cov_36.375	133	Plasmid
NODE_474_length_133_cov_17.1429	133	Plasmid
NODE_475_length_133_cov_63.0179	133	Plasmid
NODE_476_length_131_cov_47.1111	131	Plasmid
NODE_477_length_130_cov_33.8302	130	Chromosome
NODE_478_length_130_cov_100.604	130	Plasmid
NODE_479_length_122_cov_33.4667	122	Plasmid
NODE_480_length_120_cov_11.1628	120	Plasmid
NODE_481_length_108_cov_28.9355	108	Plasmid
NODE_482_length_107_cov_13.5667	107	Plasmid
NODE_483_length_107_cov_73.0667	107	Plasmid
NODE_484_length_103_cov_10.6154	103	Plasmid
NODE_485_length_103_cov_17.8462	103	Plasmid
NODE_486_length_102_cov_17.64	102	Chromosome
NODE_487_length_99_cov_1.95455	99	Chromosome
NODE_488_length_99_cov_57.9545	99	Plasmid
NODE_489_length_97_cov_21.75	97	Chromosome
NODE_490_length_96_cov_55.6842	96	Chromosome
NODE_491_length_87_cov_9	87	Chromosome
NODE_492_length_86_cov_6.11111	86	Chromosome
NODE_493_length_85_cov_46.5	85	Chromosome
NODE_494_length_83_cov_19.1667	83	Plasmid
NODE_495_length_79_cov_37	79	Plasmid
NODE_496_length_79_cov_7	79	Chromosome
NODE_497_length_79_cov_74.5	79	Chromosome
NODE_498_length_79_cov_11	79	Chromosome
NODE_499_length_78_cov_156	78	Chromosome
NODE_500_length_78_cov_198	78	Chromosome
NODE_501_length_78_cov_165	78	Chromosome
NODE_502_length_78_cov_233	78	Plasmid
NODE_503_length_78_cov_8	78	Chromosome
NODE_504_length_78_cov_63	78	Chromosome
NODE_505_length_78_cov_9	78	Chromosome
NODE_506_length_78_cov_29	78	Chromosome
NODE_507_length_78_cov_122	78	Chromosome
NODE_508_length_78_cov_194	78	Chromosome
NODE_509_length_78_cov_310	78	Chromosome
NODE_510_length_78_cov_38	78	Chromosome
NODE_511_length_78_cov_70	78	Plasmid
